<svg width="21" height="21" viewBox="0 0 21 21" fill="none" xmlns="http://www.w3.org/2000/svg">
<path fill-rule="evenodd" clip-rule="evenodd" d="M11.3892 10.5L8.16548 7.29134C7.77817 6.90632 7.77817 6.27525 8.16548 5.89023L8.51788 5.53948C8.90518 5.15351 9.53873 5.15351 9.92603 5.53948L14.1505 9.74424C14.3585 9.95079 14.4508 10.2282 14.436 10.5005C14.4508 10.7722 14.3585 11.0497 14.1505 11.2562L9.92603 15.4605C9.53873 15.8465 8.90518 15.8465 8.51788 15.4605L8.16548 15.1098C7.77817 14.7252 7.77817 14.0942 8.16548 13.7091L11.3892 10.5Z" fill="#523178"/>
</svg>
