<?xml version="1.0" encoding="UTF-8" standalone="no"?>
<svg width="13px" height="13px" viewBox="0 0 13 13" version="1.1" xmlns="http://www.w3.org/2000/svg" xmlns:xlink="http://www.w3.org/1999/xlink">
    <!-- Generator: Sketch 50.2 (55047) - http://www.bohemiancoding.com/sketch -->
    <title>Combined Shape</title>
    <desc>Created with Sketch.</desc>
    <defs></defs>
    <g id="Page-1" stroke="none" stroke-width="1" fill="none" fill-rule="evenodd">
        <g id="bancoripley_home-propuesta-contingencia-gray" transform="translate(-96.000000, -108.000000)" fill="#FFFFFF" fill-rule="nonzero">
            <path d="M102.500366,121 C98.9159905,121 96,118.08389 96,114.499817 C96,110.915744 98.9159905,108 102.500366,108 C106.084376,108 109,110.915744 109,114.499817 C109,118.08389 106.084376,121 102.500366,121 Z M102.52673,109.395135 C101.75946,109.395135 101.136855,110.017322 101.136855,110.784893 C101.136855,111.552097 101.75946,112.173918 102.52673,112.173918 C103.293267,112.173918 103.915872,111.552097 103.915872,110.784893 C103.915872,110.017322 103.293267,109.395135 102.52673,109.395135 Z M102.512784,112.869526 C101.770053,112.869526 101.243768,113.436114 101.243768,114.133507 L101.243768,118.431112 C101.243768,119.129193 101.770053,119.694749 102.512784,119.694749 C103.25515,119.694749 103.781068,119.129193 103.781068,118.431112 L103.781068,114.133507 C103.781068,113.435426 103.25515,112.869526 102.512784,112.869526 Z" id="Combined-Shape"></path>
        </g>
    </g>
</svg>