<svg width="66" height="66" viewBox="0 0 66 66" fill="none" xmlns="http://www.w3.org/2000/svg">
<g clip-path="url(#clip0)">
<path d="M66.0004 11.7677C66.001 11.3734 65.973 10.9797 65.9167 10.5894C65.8605 10.1122 65.6396 9.66925 65.292 9.33656C65.1451 9.2242 64.9856 9.12922 64.8168 9.05352C64.4348 8.89404 64.0227 8.81918 63.609 8.8341H2.56555C1.96775 8.80401 1.3736 8.94322 0.851754 9.23563C0.759132 9.30217 0.671622 9.37551 0.589954 9.45504C0.0795539 9.98164 0.0179539 10.6465 0.0157539 11.3135C0.0157539 11.3135 -0.0524461 53.4851 0.0949539 54.4417C0.231354 55.3194 0.739554 55.9184 1.51615 56.1159L1.65695 56.1466H1.67895L1.81095 56.1663H1.88575H1.94735H2.12555C3.03195 56.1663 60.8876 56.1663 63.5254 56.1663C63.9607 56.179 64.3951 56.1182 64.8102 55.9864C65.0394 55.8779 65.2473 55.7293 65.424 55.5476C65.9344 55.0276 65.9938 54.3649 65.996 53.6957C66.0004 53.2437 66.0004 11.8511 66.0004 11.7677ZM62.0602 51.4006C62.0602 52.0589 61.8071 52.1774 61.2263 52.1774H4.95035C3.92075 52.1774 3.92075 52.1774 3.92075 51.1681V13.7863C3.92075 12.8801 3.92075 12.8779 4.84255 12.8779H61.3649C61.9039 12.8779 62.0558 13.0644 62.0558 13.5866C62.0558 14.9251 62.0448 34.6395 62.0558 46.8982C62.0558 48.5482 62.058 50.0842 62.0602 51.4006Z" fill="#8C4799"/>
<path d="M21.2772 10.4092H17.293V54.6213H21.2772V10.4092Z" fill="#8C4799"/>
<path d="M64.0423 26.207H1.70312V30.1806H64.0423V26.207Z" fill="#8C4799"/>
<path d="M19.3069 30.2334C19.1416 30.2335 18.9769 30.2136 18.8163 30.1742C17.0236 29.7034 15.2665 29.1065 13.5583 28.3881C9.53234 26.6767 7.27293 24.7502 6.64813 22.499C6.29833 21.2462 6.31374 19.3263 8.35974 17.2901C10.4057 15.2539 12.3197 15.243 13.5825 15.5897C15.8375 16.2128 17.7625 18.4684 19.4873 22.4837C20.2066 24.1861 20.8021 25.9379 21.2693 27.7255C21.3443 28.023 21.3502 28.3337 21.2866 28.6338C21.2231 28.934 21.0916 29.2157 20.9024 29.4576C20.7132 29.6994 20.4711 29.895 20.1946 30.0295C19.9181 30.1639 19.6145 30.2337 19.3069 30.2334ZM12.7069 19.4645C12.3483 19.4645 11.8929 19.7366 11.3495 20.2786C10.7159 20.9105 10.4475 21.4239 10.5531 21.8145C10.9337 23.1748 13.8597 24.8885 17.2939 26.2072C15.9739 22.7931 14.2513 19.8639 12.8763 19.4865C12.8212 19.4712 12.7642 19.4638 12.7069 19.4645V19.4645Z" fill="#FFB71B"/>
<path d="M17.2422 28.2144C17.2424 28.0495 17.2624 27.8853 17.3016 27.7251C17.7735 25.9378 18.3719 24.1861 19.0924 22.4833C20.8106 18.468 22.74 16.2124 24.9972 15.5893C26.2534 15.2426 28.1784 15.2557 30.22 17.2897C32.2616 19.3237 32.2748 21.2392 31.925 22.4986C31.3002 24.7498 29.0386 26.6675 25.0148 28.3877C23.3066 29.1061 21.5495 29.703 19.7568 30.1738C19.4583 30.2486 19.1466 30.2545 18.8455 30.1909C18.5444 30.1274 18.2618 29.9961 18.0193 29.8071C17.7767 29.6182 17.5806 29.3765 17.446 29.1004C17.3113 28.8244 17.2416 28.5214 17.2422 28.2144V28.2144ZM28.042 21.632C28.042 21.2721 27.767 20.8179 27.2236 20.276C26.59 19.6441 26.0774 19.3786 25.6968 19.4817C24.3196 19.8613 22.6014 22.7883 21.2792 26.2046C24.7046 24.8881 27.6394 23.1722 28.02 21.8009C28.0338 21.7464 28.0411 21.6904 28.042 21.6341V21.632Z" fill="#FFB71B"/>
<path d="M19.2671 26.1543C19.4326 26.154 19.5974 26.1747 19.7577 26.2157C21.5506 26.6852 23.3077 27.2813 25.0157 27.9996C29.0417 29.7132 31.3011 31.6397 31.9259 33.8887C32.2735 35.1415 32.2603 37.0636 30.2209 39.0976C28.1815 41.1316 26.2609 41.1469 24.9981 40.7981C22.7409 40.1749 20.8181 37.9215 19.0933 33.9062C18.3728 32.2034 17.7744 30.4517 17.3025 28.6644C17.228 28.3666 17.2224 28.0558 17.2863 27.7556C17.3502 27.4554 17.4818 27.1736 17.6712 26.9317C17.8605 26.6897 18.1027 26.494 18.3792 26.3593C18.6557 26.2246 18.9593 26.1545 19.2671 26.1543V26.1543ZM25.8671 36.9254C26.2257 36.9254 26.6811 36.6511 27.2245 36.1092C27.8581 35.4773 28.1265 34.966 28.0209 34.5864C27.6403 33.2151 24.7055 31.5014 21.2801 30.1828C22.6001 33.5969 24.3205 36.5239 25.6977 36.9035C25.7531 36.9165 25.8102 36.9216 25.8671 36.9188V36.9254Z" fill="#FFB71B"/>
<path d="M21.3399 28.1748C21.34 28.3398 21.3193 28.5042 21.2783 28.6641C20.809 30.4519 20.2112 32.2037 19.4897 33.9059C17.7715 37.9212 15.8399 40.1768 13.5849 40.7999C12.3199 41.1466 10.3927 41.1334 8.35993 39.0995C6.32713 37.0655 6.30513 35.15 6.65493 33.8884C7.27973 31.6393 9.54133 29.7195 13.5651 27.9992C15.2732 27.281 17.0303 26.6849 18.8231 26.2154C19.1217 26.1411 19.4333 26.1356 19.7344 26.1993C20.0354 26.263 20.3179 26.3943 20.5605 26.5831C20.8031 26.772 20.9993 27.0135 21.1344 27.2892C21.2694 27.565 21.3397 27.8679 21.3399 28.1748V28.1748ZM10.5401 34.7572C10.5401 35.1149 10.8151 35.5691 11.3585 36.111C11.9921 36.7451 12.5047 37.0106 12.8853 36.9053C14.2603 36.5257 15.9807 33.5987 17.3029 30.1846C13.8599 31.5011 10.9339 33.2147 10.5599 34.5861C10.5425 34.6408 10.5329 34.6977 10.5313 34.755L10.5401 34.7572Z" fill="#FFB71B"/>
</g>
<defs>
<clipPath id="clip0">
<rect width="66" height="66" fill="white"/>
</clipPath>
</defs>
</svg>
