<svg width="74" height="68" viewBox="0 0 74 68" fill="none" xmlns="http://www.w3.org/2000/svg">
<g clip-path="url(#clip0)">
<path d="M66.7148 67.9995H7.68931C5.74519 67.9964 3.88155 67.2228 2.50684 65.8481C1.13214 64.4734 0.358495 62.6097 0.355469 60.6656L0.355469 11.8343C0.358495 9.89021 1.13214 8.02657 2.50684 6.65186C3.88155 5.27716 5.74519 4.50351 7.68931 4.50049H66.7148C68.6578 4.50352 70.5203 5.27753 71.8932 6.65256C73.2661 8.0276 74.0372 9.89126 74.0372 11.8343V60.6656C74.0372 62.6087 73.2661 64.4724 71.8932 65.8474C70.5203 67.2224 68.6578 67.9964 66.7148 67.9995ZM7.68931 7.32648C6.49928 7.3442 5.36295 7.82482 4.52138 8.6664C3.6798 9.50797 3.19918 10.6443 3.18146 11.8343V60.6656C3.19918 61.8557 3.6798 62.992 4.52138 63.8336C5.36295 64.6751 6.49928 65.1558 7.68931 65.1735H66.7148C67.3125 65.1826 67.9061 65.0727 68.4609 64.8502C69.0158 64.6278 69.5209 64.2972 69.9468 63.8777C70.3727 63.4582 70.7109 62.9581 70.9417 62.4067C71.1725 61.8553 71.2913 61.2634 71.2913 60.6656V11.8343C71.2913 11.2365 71.1725 10.6447 70.9417 10.0932C70.7109 9.54181 70.3727 9.04178 69.9468 8.62228C69.5209 8.20278 69.0158 7.87217 68.4609 7.64971C67.9061 7.42725 67.3125 7.31738 66.7148 7.32648H7.68931Z" fill="#523178"/>
<path d="M72.4344 23.882H2.00205C1.8058 23.8997 1.60803 23.8763 1.42133 23.8133C1.23462 23.7503 1.06309 23.6492 0.917643 23.5162C0.772201 23.3833 0.656043 23.2215 0.576571 23.0412C0.497098 22.8609 0.456055 22.666 0.456055 22.469C0.456055 22.272 0.497098 22.0771 0.576571 21.8968C0.656043 21.7165 0.772201 21.5547 0.917643 21.4218C1.06309 21.2889 1.23462 21.1877 1.42133 21.1247C1.60803 21.0617 1.8058 21.0383 2.00205 21.056H72.4344C72.7872 21.0878 73.1154 21.2504 73.3544 21.5119C73.5933 21.7734 73.7259 22.1148 73.7259 22.469C73.7259 22.8232 73.5933 23.1647 73.3544 23.4261C73.1154 23.6876 72.7872 23.8502 72.4344 23.882Z" fill="#523178"/>
<path d="M14.691 12.6351C14.3167 12.6351 13.9576 12.4872 13.6919 12.2236C13.4261 11.96 13.2753 11.6021 13.2723 11.2278V2.41806C13.2546 2.22182 13.278 2.02404 13.341 1.83734C13.404 1.65064 13.5052 1.4791 13.6381 1.33366C13.771 1.18822 13.9328 1.07206 14.1131 0.992586C14.2934 0.913114 14.4883 0.87207 14.6853 0.87207C14.8824 0.87207 15.0772 0.913114 15.2575 0.992586C15.4378 1.07206 15.5996 1.18822 15.7325 1.33366C15.8655 1.4791 15.9666 1.65064 16.0296 1.83734C16.0926 2.02404 16.116 2.22182 16.0983 2.41806V11.2278C16.0983 11.4126 16.0619 11.5956 15.9912 11.7664C15.9205 11.9371 15.8168 12.0922 15.6861 12.2229C15.5555 12.3536 15.4003 12.4573 15.2296 12.528C15.0588 12.5987 14.8758 12.6351 14.691 12.6351Z" fill="#523178"/>
<path d="M60.3658 12.6351C59.9916 12.6351 59.6324 12.4872 59.3667 12.2236C59.101 11.96 58.9501 11.6021 58.9471 11.2278V2.41806C58.9295 2.22182 58.9528 2.02404 59.0158 1.83734C59.0788 1.65064 59.18 1.4791 59.3129 1.33366C59.4458 1.18822 59.6076 1.07206 59.7879 0.992586C59.9682 0.913114 60.1631 0.87207 60.3601 0.87207C60.5572 0.87207 60.752 0.913114 60.9323 0.992586C61.1126 1.07206 61.2744 1.18822 61.4073 1.33366C61.5403 1.4791 61.6414 1.65064 61.7044 1.83734C61.7674 2.02404 61.7908 2.22182 61.7731 2.41806V11.2278C61.7731 11.6011 61.6249 11.959 61.3609 12.2229C61.097 12.4868 60.7391 12.6351 60.3658 12.6351Z" fill="#523178"/>
<path d="M22.2306 50.8259L28.5414 44.8678C32.3828 41.3008 33.1276 38.8706 33.1276 36.2051C33.1276 31.227 29.051 28.0912 22.9362 28.0912C17.9973 28.0912 14.1559 30.0903 12.0392 33.1869L16.6645 36.1659C17.9973 34.3236 19.9963 33.4221 22.3482 33.4221C25.2488 33.4221 26.7384 34.6764 26.7384 36.8323C26.7384 38.165 26.3072 39.5761 23.8769 41.8888L13.2935 51.8842V56H34.0291V50.8259H22.2306ZM61.3922 45.0638H56.9237V39.9289H50.9264V45.0638H43.5572L55.5518 28.5616H48.8881L35.9529 45.9654V50.2379H50.7304V56H56.9237V50.2379H61.3922V45.0638Z" fill="#523178"/>
</g>
<defs>
<clipPath id="clip0">
<rect width="74" height="68" fill="white"/>
</clipPath>
</defs>
</svg>
