<?xml version="1.0" encoding="UTF-8"?>
<svg width="11px" height="7px" viewBox="0 0 11 7" version="1.1" xmlns="http://www.w3.org/2000/svg" xmlns:xlink="http://www.w3.org/1999/xlink">
    <!-- Generator: Sketch 48.2 (47327) - http://www.bohemiancoding.com/sketch -->
    <title>Shape</title>
    <desc>Created with Sketch.</desc>
    <defs></defs>
    <g id="bancoripley_sucursales-mobile" stroke="none" stroke-width="1" fill="none" fill-rule="evenodd" transform="translate(-320.000000, -181.000000)">
        <g id="Group-4" transform="translate(15.000000, 163.000000)" fill="#FFFFFF" fill-rule="nonzero">
            <g id="Group-3" transform="translate(0.000000, 2.000000)">
                <g id="icon/more" transform="translate(292.000000, 0.000000)">
                    <path d="M16.2598338,24.1680458 C15.9478558,24.1680458 15.6356568,24.0529321 15.3917307,23.8213791 C14.8875283,23.3419228 14.8674221,22.544302 15.3466574,22.0398787 L18.1655066,19.0752041 L15.3495297,16.1310776 C14.8685268,15.6284218 14.8862026,14.8308011 15.3890793,14.3495772 C15.892177,13.8683534 16.6895768,13.8862501 17.1705797,14.3891268 L20.8173195,18.2011355 C21.2821932,18.6872201 21.283077,19.4528035 20.8201918,19.9404348 L17.1736729,23.7763058 C16.9255488,24.0363611 16.5934646,24.1680458 16.2598338,24.1680458 Z" id="Shape" transform="translate(18.083333, 19.084023) rotate(-270.000000) translate(-18.083333, -19.084023) "></path>
                </g>
            </g>
        </g>
    </g>
</svg>