<?xml version="1.0" encoding="UTF-8"?>
<svg width="53px" height="25px" viewBox="0 0 53 25" version="1.1" xmlns="http://www.w3.org/2000/svg" xmlns:xlink="http://www.w3.org/1999/xlink">
    <!-- Generator: Sketch 51.2 (57519) - http://www.bohemiancoding.com/sketch -->
    <title>line-chart</title>
    <desc>Created with Sketch.</desc>
    <defs></defs>
    <g id="Page-1" stroke="none" stroke-width="1" fill="none" fill-rule="evenodd">
        <g id="bancoripley_PAT" transform="translate(-514.000000, -734.000000)" fill="#894590" fill-rule="nonzero">
            <g id="line-chart" transform="translate(514.000000, 734.000000)">
                <path d="M47.2802359,0.0697745902 C44.1833002,0.0697745902 41.6637856,2.56844262 41.6637856,5.6397541 C41.6637856,6.75993852 42.0000721,7.80307377 42.5761501,8.67735656 L36.5082183,14.695082 C35.626538,14.1237705 34.5746998,13.7902664 33.4451696,13.7902664 C32.2747271,13.7902664 31.1869357,14.1476434 30.2862456,14.757582 L24.155809,8.67694672 C24.7317836,7.80266393 25.0678635,6.75963115 25.0678635,5.63965164 C25.0678635,2.56834016 22.5483489,0.0696721311 19.4514133,0.0696721311 C16.3544776,0.0696721311 13.834963,2.56834016 13.834963,5.63965164 C13.834963,6.75963115 14.1711462,7.80235656 14.7469142,8.67663934 L8.67877583,14.6946721 C7.79730214,14.1235656 6.74567057,13.7902664 5.61645029,13.7902664 C2.51951462,13.7902664 0,16.2890369 0,19.3603484 C0,22.4316598 2.51951462,24.9303279 5.61645029,24.9303279 C8.71338596,24.9303279 11.2329006,22.4316598 11.2329006,19.3603484 C11.2329006,18.2401639 10.896614,17.1970287 10.3205361,16.3226434 L16.3884678,10.304918 C17.2701481,10.8762295 18.3219864,11.2097336 19.4515166,11.2097336 C20.5809435,11.2097336 21.6327817,10.8762295 22.5143587,10.304918 L28.6786823,16.4190574 C28.1408304,17.2733607 27.8288226,18.2811475 27.8288226,19.3602459 C27.8288226,22.4315574 30.3483372,24.9302254 33.4452729,24.9302254 C36.5422086,24.9302254 39.0617232,22.4315574 39.0617232,19.3602459 C39.0617232,18.2402664 38.72554,17.1974385 38.1497719,16.3232582 L44.2180136,10.3052254 C45.0995906,10.876332 46.1512222,11.2096311 47.2803392,11.2096311 C50.3772749,11.2096311 52.8967895,8.71096311 52.8967895,5.63965164 C52.8967895,2.5682377 50.3771715,0.0697745902 47.2802359,0.0697745902 Z M5.61645029,22.6279713 C3.7995731,22.6279713 2.32146199,21.1620902 2.32146199,19.3603484 C2.32146199,17.5585041 3.7995731,16.092623 5.61645029,16.092623 C7.43322417,16.092623 8.9114386,17.5585041 8.9114386,19.3603484 C8.9114386,21.1620902 7.43332749,22.6279713 5.61645029,22.6279713 Z M19.4515166,8.90737705 C17.6347427,8.90737705 16.1565283,7.4414959 16.1565283,5.63965164 C16.1565283,3.83790984 17.6346394,2.37192623 19.4515166,2.37192623 C21.2683938,2.37192623 22.7465049,3.83780738 22.7465049,5.63965164 C22.7465049,7.4414959 21.2683938,8.90737705 19.4515166,8.90737705 Z M33.4451696,22.6279713 C31.6283957,22.6279713 30.1501813,21.1620902 30.1501813,19.3602459 C30.1501813,17.5584016 31.6282924,16.0925205 33.4451696,16.0925205 C35.2619435,16.0925205 36.7401579,17.5584016 36.7401579,19.3602459 C36.7400546,21.1620902 35.2619435,22.6279713 33.4451696,22.6279713 Z M47.2802359,8.90737705 C45.463462,8.90737705 43.9852476,7.4414959 43.9852476,5.63965164 C43.9852476,3.83790984 45.4633587,2.37192623 47.2802359,2.37192623 C49.0970097,2.37192623 50.5752242,3.83780738 50.5752242,5.63965164 C50.5752242,7.4414959 49.0970097,8.90737705 47.2802359,8.90737705 Z" id="Shape"></path>
                <path d="M18.2632008,14.2128074 C17.8098596,13.7633197 17.0749883,13.7633197 16.6216472,14.2128074 L14.2605127,16.5544057 C13.8072749,17.0038934 13.8072749,17.7327869 14.260616,18.182377 C14.4872865,18.4071721 14.7843138,18.5195697 15.0813411,18.5195697 C15.3783684,18.5195697 15.675499,18.4070697 15.9020663,18.182377 L18.2632008,15.8407787 C18.7166452,15.391291 18.7166452,14.6622951 18.2632008,14.2128074 Z" id="Shape"></path>
                <path d="M38.6354503,6.8585041 C38.1821092,6.40901639 37.4473411,6.40901639 36.9937934,6.85860656 L34.6326589,9.20020492 C34.1794211,9.64969262 34.1794211,10.3785861 34.6326589,10.8281762 C34.8594327,11.0528689 35.15646,11.1652664 35.4534873,11.1652664 C35.7506179,11.1652664 36.0475419,11.0527664 36.2742125,10.8280738 L38.635347,8.48647541 C39.0886881,8.03688525 39.0886881,7.3079918 38.6354503,6.8585041 Z" id="Shape"></path>
            </g>
        </g>
    </g>
</svg>