<?xml version="1.0" encoding="UTF-8"?>
<svg width="280px" height="431px" viewBox="0 0 280 431" version="1.1" xmlns="http://www.w3.org/2000/svg" xmlns:xlink="http://www.w3.org/1999/xlink">
    <!-- Generator: Sketch 52.4 (67378) - http://www.bohemiancoding.com/sketch -->
    <title>Group 22</title>
    <desc>Created with Sketch.</desc>
    <defs>
        <path d="M108.970588,134.087659 C108.970588,141.290113 115.304655,147.130435 123.115809,147.130435 C130.9284,147.130435 137.261029,141.290113 137.261029,134.087659 C137.261029,126.8838 130.9284,121.043478 123.115809,121.043478 C115.304655,121.043478 108.970588,126.8838 108.970588,134.087659 Z" id="path-1"></path>
        <path d="M185.459559,134.087659 C185.459559,141.290113 191.557646,147.130435 199.080882,147.130435 C206.604119,147.130435 212.702206,141.290113 212.702206,134.087659 C212.702206,126.8838 206.604119,121.043478 199.080882,121.043478 C191.557646,121.043478 185.459559,126.8838 185.459559,134.087659 Z" id="path-3"></path>
        <path d="M158.355877,2.40862274 C78.8019221,16.8091413 55.198246,58.6222783 57.8219581,82.4801018 C62.3088256,123.295183 122.093867,103.059984 165.216182,82.8261683 C190.090697,71.1540379 209.421629,59.4832917 209.397992,59.5275883 C209.030923,60.223874 178.286078,89.9925131 150.477788,99.6823747 C218.608097,98.2981087 242.046314,72.7694762 242.046314,72.7694762 C219.685669,119.019186 270.053433,139.826087 270.053433,139.826087 C294.510824,57.2601606 252.208854,45.4980529 252.208854,45.4980529 C251.0562,22.6119841 226.93529,-0.00138426594 183.872763,0 C175.994675,0 167.476996,0.75719347 158.355877,2.40862274" id="path-5"></path>
        <path d="M158.355877,2.40862274 C78.8019221,16.8091413 55.198246,58.6222783 57.8219581,82.4801018 C62.3088256,123.295183 122.093867,103.059984 165.216182,82.8261683 C190.090697,71.1540379 209.421629,59.4832917 209.397992,59.5275883 C209.030923,60.223874 178.286078,89.9925131 150.477788,99.6823747 C218.608097,98.2981087 242.046314,72.7694762 242.046314,72.7694762 C219.685669,119.019186 270.053433,139.826087 270.053433,139.826087 C294.510824,57.2601606 252.208854,45.4980529 252.208854,45.4980529 C251.0562,22.6119841 226.93529,-0.00138426594 183.872763,0 C175.994675,0 167.476996,0.75719347 158.355877,2.40862274" id="path-7"></path>
    </defs>
    <g id="Page-1" stroke="none" stroke-width="1" fill="none" fill-rule="evenodd">
        <g id="corta-clara_ripley-home-v3-copy" transform="translate(-160.000000, -3379.000000)">
            <g id="Group-22" transform="translate(302.500000, 3594.000000) scale(-1, 1) translate(-302.500000, -3594.000000) translate(160.000000, 3378.000000)">
                <path d="M262.276715,234.623532 C274.833297,263.568347 280.414,298.026461 283.671735,314.742781 C290.951763,242.823185 265.989277,224.45701 264.775474,181.305804 C264.373664,167.004309 263.097078,111.652174 263.097078,111.652174 L131.437129,145.45007 L110.337885,144.820176 C110.337885,144.820176 119.968784,190.517147 110.202553,223.596936 C98.3686723,263.682748 104.044247,310.264604 104.044247,310.264604 C104.044247,310.264604 201.36892,347.639252 276.228473,315.94468 C276.228473,266.324997 262.276715,234.623532 262.276715,234.623532" id="Fill-4" fill="#AB6327"></path>
                <path d="M211.236511,432 C195.070678,376.856996 198.279318,309.697099 198.31459,309.044935 C198.452856,306.563769 202.063291,304.618719 206.319908,304.697992 C210.603332,304.778082 213.964042,306.85471 213.827187,309.335058 C213.790504,309.978232 210.422942,377.765776 226.323529,432 L211.236511,432 Z" id="Fill-6" fill="#FEDFCA"></path>
                <path d="M143.683835,432 C133.996024,381.297297 143.58734,317.636994 143.683835,317.020309 C144.057044,314.624027 147.833119,312.853929 152.134241,313.059754 C156.429686,313.267955 159.606925,315.378456 159.235136,317.774738 C159.14006,318.382715 149.710514,382.149097 159.235136,432 L143.683835,432 Z" id="Fill-8" fill="#FEDFCA"></path>
                <path d="M113.053595,205.079522 C111.37542,203.012465 108.321643,202.695234 106.233861,204.372185 C104.744374,205.567446 104.148727,207.454709 104.540127,209.188507 C104.604149,215.786751 95.7941648,272.366719 59.533663,290.314656 C54.8101781,283.145049 43.7965572,281.227992 39.9223609,286.964288 C36.7793653,291.612886 39.4616371,292.649504 41.4266444,292.043854 C47.66419,290.121575 52.309839,292.017322 52.309839,292.017322 C52.309839,292.017322 34.36786,293.686984 30.4586112,300.966598 C23.9186062,313.151193 33.5829936,316.126932 39.9737001,317.221996 C45.4223511,318.157929 51.0149916,315.123251 55.6546178,310.521132 C58.8416743,307.357869 60.313511,303.292289 61.0002628,300.234669 C90.5412008,287.447931 103.955026,254.414674 109.392203,235.346249 C111.688526,227.29076 112.895275,220.721564 113.503784,216.626097 C114.88383,207.333492 114.076535,206.339822 113.053595,205.079522" id="Fill-35" fill="#FEDFCA" transform="translate(71.258730, 260.343630) rotate(43.000000) translate(-71.258730, -260.343630) "></path>
                <polygon id="Fill-36" fill="#FEDFCA" points="171.838235 229.565217 191.746324 229.565217 191.746324 203.478261 171.838235 203.478261"></polygon>
                <polygon id="Fill-37" fill="#F9D901" points="145.233969 297.391304 207.971023 296.183853 211.654412 226.434783 144.595588 228.672038"></polygon>
                <path d="M121.535754,257.531282 C121.535754,257.531282 130.467354,219.561953 142.570493,226.134813 C152.323469,231.430634 142.042076,258.751404 139.717339,262.959162 L121.535754,257.531282 Z" id="Fill-38" fill="#FDAD44" transform="translate(134.117259, 244.164720) rotate(23.000000) translate(-134.117259, -244.164720) "></path>
                <path d="M159.86056,225.543707 C159.86056,225.543707 154.871793,237.851896 158.478247,246.257588 C163.359195,257.635033 177.83063,229.686484 177.83063,229.686484 C177.83063,229.686484 180.595256,249.019439 195.8007,250.400365 C208.267781,251.532723 201.367275,224.347826 201.367275,224.347826 C201.367275,224.347826 184.742195,226.924633 176.448317,226.924633 C169.536752,226.924633 159.86056,225.543707 159.86056,225.543707" id="Fill-39" fill="#FDAD44"></path>
                <path d="M211.256714,290.086957 L218.988971,323.34147 C218.988971,323.34147 162.864048,340.849863 135.165441,322.15361 L144.849785,292.875361 L211.256714,290.086957 Z" id="Fill-40" fill="#FDAD44"></path>
                <path d="M126.783088,352.373445 L172.975889,352.695652 L173.933824,320.05035 L143.10144,298.434783 C143.10144,298.434783 136.543702,312.27035 133.754955,323.333273 C130.966208,334.396195 126.783088,352.373445 126.783088,352.373445" id="Fill-41" fill="#FDAD44"></path>
                <path d="M224.227941,349.939194 L180.182737,352.695652 L178.125,323.41518 L210.784519,298.434783 C210.784519,298.434783 218.034084,320.446475 220.098703,327.887533 C221.462728,332.803675 224.227941,349.939194 224.227941,349.939194" id="Fill-42" fill="#FDAD44"></path>
                <path d="M95.3492647,122.186598 C95.3492647,172.395665 121.289785,217.846416 167.273936,218.084883 C224.233082,218.381244 254.781666,186.917354 251.185364,120.98737 C248.451953,70.8830624 219.802834,35.4782609 173.818683,35.4782609 C127.834531,35.4782609 95.3492647,71.976152 95.3492647,122.186598" id="Fill-43" fill="#FEDFCA"></path>
                <path d="M209.558824,160.174573 C209.558824,157.004424 213.545983,154.434783 218.464391,154.434783 C223.384164,154.434783 227.371324,157.004424 227.371324,160.174573 C227.371324,163.343402 223.384164,165.913043 218.464391,165.913043 C213.545983,165.913043 209.558824,163.343402 209.558824,160.174573" id="Fill-44" fill="#F8B198"></path>
                <path d="M110.018382,163.304348 C110.018382,160.135155 114.005848,157.565217 118.924632,157.565217 C123.844782,157.565217 127.830882,160.135155 127.830882,163.304348 C127.830882,166.473541 123.844782,169.043478 118.924632,169.043478 C114.005848,169.043478 110.018382,166.473541 110.018382,163.304348" id="Fill-45" fill="#F8B198"></path>
                <path d="M267.1875,139.304348 C267.1875,128.066523 260.385721,118.956522 251.994485,118.956522 C243.60325,118.956522 236.801471,128.066523 236.801471,139.304348 C236.801471,150.542173 243.60325,159.652174 251.994485,159.652174 C260.385721,159.652174 267.1875,150.542173 267.1875,139.304348" id="Fill-46" fill="#FEDFCA"></path>
                <path d="M179.172794,257.217391 C179.172794,260.387629 176.592973,262.956522 173.410605,262.956522 C170.22688,262.956522 167.647059,260.387629 167.647059,257.217391 C167.647059,254.047153 170.22688,251.478261 173.410605,251.478261 C176.592973,251.478261 179.172794,254.047153 179.172794,257.217391" id="Fill-47" fill="#CA1E3A"></path>
                <path d="M178.226468,274.333733 C180.885295,276.982935 180.885295,281.276607 178.226468,283.927137 C175.566308,286.575012 171.254877,286.575012 168.593385,283.927137 C165.934558,281.276607 165.934558,276.982935 168.593385,274.333733 C171.254877,271.685857 175.566308,271.685857 178.226468,274.333733" id="Fill-48" fill="#CA1E3A"></path>
                <ellipse id="Oval" fill="#844921" fill-rule="nonzero" cx="160.836397" cy="180" rx="7.85845588" ry="7.82608696"></ellipse>
                <path d="M107.922794,134.086957 C107.922794,141.291203 114.021191,147.130435 121.54481,147.130435 C129.068429,147.130435 135.165441,141.291203 135.165441,134.086957 C135.165441,126.88271 129.068429,121.043478 121.54481,121.043478 C114.021191,121.043478 107.922794,126.88271 107.922794,134.086957" id="Fill-50" fill="#000000"></path>
                <mask id="mask-2" fill="white">
                    <use xlink:href="#path-1"></use>
                </mask>
                <g id="Clip-53"></g>
                <polygon id="Fill-52" fill="#FFFFFF" points="112.263655 115.826087 123.639706 134.608696 103.731618 131.926291"></polygon>
                <path d="M184.411765,136.173913 C184.411765,143.37816 190.509852,149.217391 198.033088,149.217391 C205.556325,149.217391 211.654412,143.37816 211.654412,136.173913 C211.654412,128.969666 205.556325,123.130435 198.033088,123.130435 C190.509852,123.130435 184.411765,128.969666 184.411765,136.173913" id="Fill-55" fill="#000000"></path>
                <mask id="mask-4" fill="white">
                    <use xlink:href="#path-3"></use>
                </mask>
                <g id="Clip-58"></g>
                <polygon id="Fill-57" fill="#FFFFFF" points="187.254995 115.826087 198.033088 134.608696 179.172794 131.926291"></polygon>
                <path d="M57.8228785,82.2925613 C55.1866725,58.7908362 78.9027471,17.601796 158.83553,3.41621745 C218.094982,-7.09990115 251.766331,19.1917589 253.135426,45.8625011 C253.135426,45.8625011 295.638834,57.4490493 271.064979,138.782609 C271.064979,138.782609 220.457369,118.286268 242.924494,72.7268751 C242.924494,72.7268751 219.374666,97.874471 150.919927,99.2380756 C178.860637,89.6928435 209.750489,60.3685267 210.120703,59.6826336 C210.189158,59.5585456 64.9323921,145.689266 57.8228785,82.2925613" id="Fill-60" fill="#AB6327"></path>
                <mask id="mask-6" fill="white">
                    <use xlink:href="#path-5"></use>
                </mask>
                <g id="Mask"></g>
                <path d="M60.8535513,95.2609823 C60.8535513,95.2609823 145.069199,122.644513 255.8778,6.92897596 C343.117456,-84.1742956 241.693133,-0.13747392 241.693133,-0.13747392 C241.693133,-0.13747392 96.3117486,111.161186 53.7619118,51.0949791 C53.7619118,51.0949791 32.4869934,84.6613075 60.8535513,95.2609823" id="Fill-62" fill="#C4803B" mask="url(#mask-6)"></path>
                <mask id="mask-8" fill="white">
                    <use xlink:href="#path-7"></use>
                </mask>
                <g id="Clip-66"></g>
                <path d="M229.466912,-11.6615164 C229.466912,-11.6615164 197.526898,43.0160876 119.448529,39.4885448 C119.448529,39.4885448 201.075788,25.3783735 209.94732,-15.1890592 C218.82024,-55.7564919 229.466912,-11.6615164 229.466912,-11.6615164" id="Fill-65" fill="#C4803B" mask="url(#mask-8)"></path>
                <path d="M128.878676,77.5879188 L128.417887,87.7073147 C128.417887,87.7073147 121.734376,85.7246723 113.32875,88.2753445 C104.433449,90.9721205 102.683824,94.9565217 102.683824,94.9565217 C102.683824,94.9565217 102.65769,81.7361748 113.32875,77.5879188 C121.512922,74.4064058 128.878676,77.5879188 128.878676,77.5879188" id="Fill-69" fill="#663300"></path>
                <path d="M186.507353,79.6011336 L188.515181,95.2158724 C188.515181,95.2158724 198.341647,91.7588745 207.192882,93.0277036 C216.560416,94.3695185 224.227941,99.1304348 224.227941,99.1304348 C224.227941,99.1304348 223.703247,86.0519506 213.276532,80.8222413 C198.674653,73.4984024 186.507353,79.6011336 186.507353,79.6011336" id="Fill-71" fill="#663300"></path>
                <path d="M119.657139,110.592291 C114.59246,110.592291 109.455823,110.945215 104.716335,111.662091 C94.0957292,113.26679 89.1721965,116.131535 89.0919365,118.112594 C88.0637789,143.323185 97.9883367,159.120646 116.318048,161.454628 C126.459862,162.747761 135.263548,160.074642 141.77429,153.728913 C148.95202,146.733859 152.883374,135.549219 151.791562,125.234479 C151.563236,123.078337 151.114888,121.054542 150.460354,119.220994 C148.440017,113.561812 134.353013,110.592291 119.657139,110.592291 M121.260954,165.913043 C119.527063,165.913043 117.707376,165.799998 115.793591,165.557363 C95.3674343,162.955931 83.8349099,145.156733 84.9447112,117.944404 C85.1979452,111.726885 95.4975107,108.87179 104.092244,107.573142 C122.633676,104.766297 150.421608,106.774928 154.370951,117.834115 C155.136188,119.975092 155.657878,122.318725 155.920798,124.800218 C157.139919,136.323996 152.727006,148.840371 144.677486,156.684647 C140.170475,161.078268 132.624656,165.913043 121.260954,165.913043" id="Fill-73" fill="#600056"></path>
                <path d="M163.356972,118.006641 C160.5308,127.964474 164.00789,141.19542 171.624044,149.466647 C176.570191,154.836362 185.475743,160.680521 199.816667,158.028573 C208.973741,156.33374 216.904989,151.090177 221.57612,143.644427 C226.714363,135.455474 227.739801,125.134267 224.541873,113.796982 C223.273205,109.299365 214.087109,106.385513 201.139233,106.374543 L201.059077,106.374543 C182.724199,106.374543 165.117629,111.803221 163.356972,118.006641 M193.049055,162.782609 C183.449744,162.782609 174.935296,159.159833 168.564316,152.242005 C159.907522,142.842261 156.126394,128.305909 159.365782,116.891836 C162.233414,106.792767 185.455013,102.26087 201.072897,102.26087 L201.141996,102.26087 C208.495572,102.266354 225.885169,103.296144 228.534446,112.689032 C232.054378,125.165805 230.865865,136.622386 225.096052,145.817818 C219.811317,154.242622 210.875361,160.166312 200.578144,162.072314 C198.009022,162.546758 195.493798,162.782609 193.049055,162.782609" id="Fill-75" fill="#600056"></path>
                <path d="M160.3125,124.173913 L155.073529,124.173913" id="Fill-77" fill="#FFFFFF"></path>
                <polygon id="Fill-79" fill="#600056" points="155.073529 126.26087 160.3125 126.26087 160.3125 121.043478 155.073529 121.043478"></polygon>
                <path d="M227.371324,111.652174 L250.422794,118.956522" id="Fill-81" fill="#FFFFFF"></path>
                <polygon id="Fill-82" fill="#600056" points="249.807599 121.043478 226.323529 113.881391 227.985105 108.521739 251.470588 115.685228"></polygon>
                <path d="M202.224265,104.018307 C202.224265,104.018307 228.017494,98.6361556 235.753676,106.709382 L235.753676,112.091533 L228.017494,114.782609 L220.279937,106.709382 L202.224265,104.018307 Z" id="Fill-83" fill="#600056"></path>
                <path d="M113.161765,109.235698 C113.161765,109.235698 87.3699095,103.853547 79.6323529,111.926773 L79.6323529,117.308924 L87.3699095,120 L95.1074661,111.926773 L113.161765,109.235698 Z" id="Fill-84" fill="#600056"></path>
                <path d="M166.599265,158.608696 L151.807417,158.608696 C142.987469,128.086957 166.599265,158.608696 166.599265,158.608696" id="Fill-85" fill="#F4AB7A"></path>
                <path d="M242.797376,350.637124 C252.319915,277.768124 228.496224,244.742402 223.431782,238.658536 C221.745947,236.589362 218.689244,236.269231 216.603804,237.938584 C214.516977,239.60519 214.19091,242.633383 215.875357,244.69981 L215.997459,244.846823 C217.83037,247.04927 224.196305,255.501832 229.117833,271.76532 C235.390803,292.49141 236.917073,317.114031 233.695256,345.067116 C226.627237,345.102839 219.255352,350.969621 219.768734,356.889986 C220.230777,362.214056 222.790749,361.010473 223.861913,359.217464 C227.255783,353.527922 231.748567,351.510958 231.748567,351.510958 C231.748567,351.510958 220.304316,365.41262 221.160415,372.925398 C222.51602,384.81834 232.372951,380.839371 237.662171,377.056877 C242.170218,373.82946 244.442973,367.852762 245.095107,361.500974 C245.555763,357.015016 244.137719,353.163824 242.797376,350.637124" id="Fill-86" fill="#FEDFCA"></path>
                <path d="M242.040441,251.381079 C242.040441,251.381079 228.923942,222.517108 212.972712,226.884801 C198.789393,230.766733 211.856208,260.714646 213.019635,265.043478 L242.040441,251.381079 Z" id="Fill-87" fill="#FDAD44"></path>
            </g>
        </g>
    </g>
</svg>