<?xml version="1.0" encoding="utf-8"?>
<!-- Generator: Adobe Illustrator 22.1.0, SVG Export Plug-In . SVG Version: 6.00 Build 0)  -->
<svg version="1.1" id="Capa_1" xmlns="http://www.w3.org/2000/svg" xmlns:xlink="http://www.w3.org/1999/xlink" x="0px" y="0px"
	 viewBox="0 0 37 37" style="enable-background:new 0 0 37 37;" xml:space="preserve">
<style type="text/css">
	.st0{fill:#894590;}
</style>
<title>lista</title>
<desc>Created with Sketch.</desc>
<g>
	<path class="st0" d="M33.9,13.2c0.2,4.5,0,8.9-2.1,13c-2.4,4.7-5.9,8.3-10.8,10.3c-1.6,0.7-3,0.8-4.6,0.1
		C8.3,33.1,4.1,26.8,3.3,18.2c-0.3-3.5-0.1-7-0.2-10.5c0-0.7,0.3-1.2,1-1.5c4.5-2,9-4,13.6-6c0.7-0.3,1.3-0.2,2,0.1
		c4.4,2,8.8,4,13.3,5.9c0.8,0.3,1,0.8,1,1.6C33.8,9.6,33.9,11.4,33.9,13.2z M31.2,14.4c0-1.9-0.1-3.3,0-4.6c0.1-1-0.3-1.4-1.1-1.7
		C26.5,6.6,23,5,19.4,3.4c-0.6-0.3-1.1-0.3-1.8,0C14.1,5,10.4,6.7,6.8,8.2C6.1,8.6,5.9,8.9,5.9,9.6c0,2.4-0.1,4.9,0,7.3
		c0.1,7.8,4.9,14.7,11.7,16.8c0.8,0.2,1.4,0.2,2.1,0c4.8-1.7,8-5,10-9.6C31.2,20.9,31.3,17.4,31.2,14.4z"/>
	<path class="st0" d="M18.8,18.5c0,3.9,0,7.8,0,11.7c0,1.8-0.1,1.9-1.8,1.1c-6-2.7-9-7.4-9.4-13.9c-0.1-2.1,0-4.3,0-6.4
		c0-0.7,0.2-1.2,0.9-1.5c3.1-1.4,6.2-2.7,9.3-4.1c0.9-0.4,1.1-0.1,1,0.8C18.8,10.2,18.8,14.3,18.8,18.5
		C18.8,18.5,18.8,18.5,18.8,18.5z"/>
</g>
</svg>
