<svg width="64" height="56" viewBox="0 0 64 56" fill="none" xmlns="http://www.w3.org/2000/svg">
<g clip-path="url(#clip0)">
<path fill-rule="evenodd" clip-rule="evenodd" d="M41.2217 45.8174C41.2199 45.7067 41.0704 45.6735 41.0704 45.6735C39.5888 45.4262 38.1976 44.4649 37.1496 43.4612C35.7107 42.044 34.4583 40.4493 33.4225 38.7156C33.2564 38.3595 33.4926 38.3226 33.4926 38.3226V38.3189C34.4303 38.0002 35.2515 37.4089 35.8511 36.6206C36.4506 35.8324 36.8013 34.8831 36.858 33.8944C36.8544 30.5086 33.3837 29.5178 30.2581 29.5215C29.0773 29.5215 28.6806 29.6119 27.4499 29.6119C26.0218 29.6137 25.1657 29.5233 24.9442 29.5252C24.7468 29.5252 24.6195 29.6857 24.6195 29.8647C24.6195 30.6821 26.6344 29.2982 26.6417 32.0179L26.6528 42.8911C26.6602 45.4115 24.7413 44.7122 24.7376 45.3211C24.7376 45.524 24.9904 45.5978 25.1343 45.5978C25.8483 45.5978 26.6583 45.5019 27.8152 45.5C29.2728 45.4982 29.6419 45.596 30.4795 45.5941C31.0884 45.5941 31.1899 45.4761 31.1881 45.3174C31.1899 44.5461 28.6049 45.727 28.6049 42.4612L28.5865 30.9939C28.5865 30.3167 29.1215 30.3167 29.9094 30.3186C32.7435 30.3093 34.9834 31.7651 35.0388 34.5069C35.0738 36.3705 33.5682 38.1418 31.0552 38.1418C30.1696 38.1492 30.3633 38.0957 30.164 38.0994C30.0478 38.0938 29.9223 38.1399 29.9223 38.2986C29.9223 38.5108 30.1031 38.6141 30.3153 38.6713C30.5921 38.7765 31.2268 38.8761 31.8873 39.8079C33.5701 42.3412 35.4668 46.1366 39.7715 46.1274C41.3804 46.1274 41.2217 45.9521 41.2217 45.8174" fill="#894590"/>
<mask id="mask0" mask-type="alpha" maskUnits="userSpaceOnUse" x="5" y="22" width="55" height="34">
<path d="M5.41199 22.9346H59.3073V55.3529H5.41199V22.9346Z" fill="white"/>
</mask>
<g mask="url(#mask0)">
<path fill-rule="evenodd" clip-rule="evenodd" d="M56.9086 55.3538H7.81235C7.17586 55.3538 6.56538 55.1012 6.11496 54.6515C5.66454 54.2018 5.41101 53.5917 5.41003 52.9552V25.3341C5.41003 24.6974 5.66294 24.0869 6.11312 23.6367C6.56329 23.1865 7.17386 22.9336 7.81051 22.9336C8.44715 22.9336 9.05772 23.1865 9.5079 23.6367C9.95807 24.0869 10.211 24.6974 10.211 25.3341V50.5566H54.5063V31.9469C54.5063 31.3105 54.7591 30.7002 55.2091 30.2502C55.6591 29.8002 56.2694 29.5473 56.9058 29.5473C57.5422 29.5473 58.1525 29.8002 58.6025 30.2502C59.0525 30.7002 59.3054 31.3105 59.3054 31.9469V52.9533C59.3058 53.5892 59.0539 54.1992 58.6048 54.6493C58.1557 55.0994 57.5463 55.3528 56.9104 55.3538" fill="#894590"/>
</g>
<mask id="mask1" mask-type="alpha" maskUnits="userSpaceOnUse" x="0" y="0" width="63" height="27">
<path d="M0.633301 0H62.5142V26.3794H0.633301V0Z" fill="white"/>
</mask>
<g mask="url(#mask1)">
<path fill-rule="evenodd" clip-rule="evenodd" d="M5.56148 16.735C5.22013 17.9288 5.39542 19.2056 6.0412 20.1688C6.33273 20.6079 6.95084 21.3146 7.97856 21.5028C8.15384 21.4566 8.32912 21.4345 8.49887 21.4345C10.2665 21.4345 11.7518 19.761 11.8809 17.6262L11.9068 17.3568C12.0507 16.0708 13.1061 15.0339 14.3829 15.1021C15.6283 15.1593 16.6302 16.1354 16.6634 17.4325C16.7206 19.6189 18.2022 21.333 20.0363 21.333C21.9017 21.333 23.4257 19.5193 23.4276 17.2923C23.4294 15.9269 24.494 14.8235 25.8077 14.8235C27.1233 14.8235 28.1879 15.9306 28.1879 17.2941C28.1879 19.5156 29.7064 21.3256 31.5737 21.3256C33.4409 21.3256 34.9613 19.5101 34.9613 17.2793C34.9613 15.914 36.0259 14.8106 37.3414 14.8106C38.6552 14.8106 39.7216 15.9158 39.7216 17.2793C39.7216 19.5082 41.2401 21.3201 43.1092 21.3201C43.41 21.3201 43.7052 21.274 43.9875 21.1799C45.506 20.6854 46.5097 19.2351 46.5005 17.5672L46.495 17.3845L46.4618 16.9989C46.3418 15.6557 47.2828 14.4619 48.5744 14.318C49.8586 14.1704 51.0302 15.1298 51.1908 16.4693C51.2147 16.6668 51.2332 16.866 51.2424 17.0635C51.248 17.1096 51.1649 17.2332 51.1649 17.2812L51.0764 17.4712V17.5081C51.0764 19.5839 52.7591 21.3201 54.5562 21.3201C55.881 21.2721 56.667 20.4289 57.001 19.9289C57.3496 19.3997 57.5804 18.8018 57.6778 18.1756C57.7752 17.5495 57.737 16.9097 57.5656 16.2996L52.2498 5.46518C52.1945 5.35447 52.1557 5.20318 52.1188 5.08694C52.0764 5.01867 51.8199 4.88397 50.8955 4.88397H12.2463C11.3237 4.88397 11.0617 5.01867 10.9916 5.05741C10.9584 5.16443 10.9492 5.31019 10.903 5.41167L5.55963 16.7332L5.56148 16.735ZM8.22026 26.3775C5.77182 26.3775 3.55217 25.062 2.12775 22.9309C0.607389 20.6503 0.219918 17.7056 1.0908 15.0006C1.12586 14.8955 1.16461 14.8088 1.21074 14.7091L6.56706 3.36177C7.75899 0.00553533 11.0082 0 12.2463 0H50.8955C52.1318 0 55.3717 0.0110707 56.5692 3.34885L61.9163 14.2276C61.9717 14.3383 62.0178 14.4545 62.0547 14.5707C62.9403 17.3236 62.5326 20.3773 60.9587 22.7371C59.5306 24.8811 57.3349 26.1635 54.9345 26.2539L54.6485 26.2613C52.4048 26.2613 50.3771 25.276 48.9047 23.6726C47.9511 24.6936 46.7546 25.4566 45.4267 25.8904C44.6789 26.137 43.8966 26.2628 43.1092 26.2631C40.8582 26.2631 38.8194 25.2483 37.3414 23.6173C35.8654 25.252 33.8247 26.2631 31.5737 26.2631C29.3226 26.2631 27.2838 25.2539 25.8077 23.6228C24.3317 25.2575 22.2891 26.2705 20.0363 26.2705C17.7871 26.2705 15.7593 25.2871 14.2906 23.6781C12.9641 25.1888 11.1037 26.1265 9.10038 26.2945C8.84575 26.3849 8.5819 26.3757 8.30698 26.3757H8.22026V26.3775Z" fill="#894590"/>
</g>
</g>
<defs>
<clipPath id="clip0">
<rect width="62.7333" height="55.3529" fill="white" transform="translate(0.633301)"/>
</clipPath>
</defs>
</svg>
