<?xml version="1.0" encoding="UTF-8"?>
<svg width="22px" height="35px" viewBox="0 0 22 35" version="1.1" xmlns="http://www.w3.org/2000/svg" xmlns:xlink="http://www.w3.org/1999/xlink">
    <!-- Generator: Sketch 48.2 (47327) - http://www.bohemiancoding.com/sketch -->
    <title>invoice</title>
    <desc>Created with Sketch.</desc>
    <defs></defs>
    <g id="bancoripley_super-avance" stroke="none" stroke-width="1" fill="none" fill-rule="evenodd" transform="translate(-614.000000, -919.000000)">
        <g id="invoice" transform="translate(614.000000, 919.000000)" fill="#894590" fill-rule="nonzero">
            <path d="M21,0 L17,0 C16.4477333,0 16,0.450181875 16,1.00546875 C16,1.55988422 15.5514,2.0109375 15,2.0109375 C14.4486,2.0109375 14,1.55988422 14,1.00546875 C14,0.450181875 13.5522667,0 13,0 L9,0 C8.44773333,0 8,0.450181875 8,1.00546875 C8,1.55988422 7.5514,2.0109375 7,2.0109375 C6.4486,2.0109375 6,1.55988422 6,1.00546875 C6,0.450181875 5.55226667,0 5,0 L1,0 C0.447733333,0 0,0.450181875 0,1.00546875 L0,33.3145313 C0,33.8698181 0.447733333,34.32 1,34.32 L21,34.32 C21.5522667,34.32 22,33.8698181 22,33.3145313 L22,1.00546875 C22,0.450181875 21.5522667,0 21,0 Z M20,26.27625 L19,26.27625 C18.4477333,26.27625 18,26.7264319 18,27.2817187 C18,27.8370056 18.4477333,28.2871875 19,28.2871875 L20,28.2871875 L20,32.3090625 L2,32.3090625 L2,28.2871875 L3,28.2871875 C3.55226667,28.2871875 4,27.8370056 4,27.2817187 C4,26.7264319 3.55226667,26.27625 3,26.27625 L2,26.27625 L2,2.0109375 L4.17133333,2.0109375 C4.584,3.18137016 5.6962,4.021875 7,4.021875 C8.3038,4.021875 9.41593333,3.18137016 9.82866667,2.0109375 L12.1714,2.0109375 C12.5840667,3.18137016 13.6962667,4.021875 15.0000667,4.021875 C16.3038667,4.021875 17.416,3.18137016 17.8287333,2.0109375 L20,2.0109375 L20,26.27625 Z" id="Shape"></path>
            <path d="M11,13.9542857 C10.433896,13.9542857 9.97333333,13.5031223 9.97333333,12.9485714 C9.97333333,12.3940206 10.433896,11.9428571 11,11.9428571 C11.4137467,11.9428571 11.7852631,12.1840945 11.9463813,12.5574156 C12.16732,13.068989 12.7692889,13.3082149 13.2919307,13.0919192 C13.8141618,12.8755566 14.0583716,12.2854034 13.8375698,11.7738971 C13.4932258,10.9765669 12.8288356,10.3805135 12.0266667,10.1034057 L12.0266667,8.92571429 C12.0266667,8.37029181 11.5669938,7.92 11,7.92 C10.4330062,7.92 9.97333333,8.37029181 9.97333333,8.92571429 L9.97333333,10.1044114 C8.77836178,10.5195703 7.92,11.6374552 7.92,12.9485714 C7.92,14.612224 9.301688,15.9657143 11,15.9657143 C11.566104,15.9657143 12.0266667,16.4168777 12.0266667,16.9714286 C12.0266667,17.5259794 11.566104,17.9771429 11,17.9771429 C10.5862533,17.9771429 10.2147369,17.7359055 10.0536187,17.3625844 C9.83268,16.851011 9.23057422,16.611651 8.70806933,16.8280808 C8.18583822,17.0444434 7.94162844,17.6345966 8.16243022,18.1461029 C8.50677422,18.9435002 9.17116444,19.5395535 9.97333333,19.8165943 L9.97333333,20.9942857 C9.97333333,21.5497082 10.4330062,22 11,22 C11.5669938,22 12.0266667,21.5497082 12.0266667,20.9942857 L12.0266667,19.8155886 C13.2216382,19.4004297 14.08,18.2825448 14.08,16.9714286 C14.08,15.307776 12.698312,13.9542857 11,13.9542857 Z" id="Shape"></path>
            <path d="M15.62,26.4 L13.42,26.4 C12.8125067,26.4 12.32,26.7940053 12.32,27.28 C12.32,27.7659947 12.8125067,28.16 13.42,28.16 L15.62,28.16 C16.2274933,28.16 16.72,27.7659947 16.72,27.28 C16.72,26.7940053 16.2274933,26.4 15.62,26.4 Z" id="Shape"></path>
            <path d="M9.46,26.4 L7.26,26.4 C6.65250667,26.4 6.16,26.7940053 6.16,27.28 C6.16,27.7659947 6.65250667,28.16 7.26,28.16 L9.46,28.16 C10.0674933,28.16 10.56,27.7659947 10.56,27.28 C10.56,26.7940053 10.0674933,26.4 9.46,26.4 Z" id="Shape"></path>
        </g>
    </g>
</svg>