<?xml version="1.0" encoding="UTF-8"?>
<svg width="13px" height="15px" viewBox="0 0 13 15" version="1.1" xmlns="http://www.w3.org/2000/svg" xmlns:xlink="http://www.w3.org/1999/xlink">
    <!-- Generator: Sketch 48.2 (47327) - http://www.bohemiancoding.com/sketch -->
    <title>Group 2</title>
    <desc>Created with Sketch.</desc>
    <defs></defs>
    <g id="layout/menu" stroke="none" stroke-width="1" fill="none" fill-rule="evenodd" transform="translate(-1250.000000, -22.000000)">
        <g id="login" transform="translate(1155.000000, 0.000000)" fill="#FFFFFF" fill-rule="nonzero">
            <g id="Group-2" transform="translate(92.000000, 21.000000)">
                <g id="icon/lock">
                    <path d="M14.8030267,7.16149171 L14.0187213,7.16149171 L14.0187213,5.0237537 C14.0187213,2.83959093 12.0325609,1.0625 9.59143776,1.0625 C7.15004157,1.0625 5.16415421,2.83959093 5.16415421,5.0237537 L5.16415421,7.16149171 L4.37984886,7.16149171 C3.92816325,7.16149171 3.5625,7.4886641 3.5625,7.89255951 L3.5625,15.1465504 C3.5625,15.5502014 3.92789017,15.8776182 4.37984886,15.8776182 L14.8030267,15.8776182 C15.253893,15.8776182 15.6203755,15.5502014 15.6203755,15.1465504 L15.6203755,7.89280385 C15.6206486,7.48890844 15.2541661,7.16149171 14.8030267,7.16149171 Z M6.79830575,5.0237537 C6.79830575,3.64567136 8.05122808,2.52463559 9.59143776,2.52463559 C11.1316474,2.52463559 12.3845698,3.6459157 12.3845698,5.0237537 L12.3845698,7.16149171 L6.79830575,7.16149171 L6.79830575,5.0237537 Z M13.9859509,14.4152382 L5.19719771,14.4152382 L5.19719771,8.6236273 L13.986224,8.6236273 L13.986224,14.4152382 L13.9859509,14.4152382 Z" id="Shape"></path>
                </g>
            </g>
        </g>
    </g>
</svg>