<svg width="20" height="12" viewBox="0 0 20 12" fill="none" xmlns="http://www.w3.org/2000/svg">
<path d="M18.5572 0H1.43986C1.05847 0.00212375 0.693145 0.208072 0.423458 0.572989C0.153772 0.937905 0.00156953 1.43223 0 1.94829L0 9.04767C0.000784196 9.56444 0.15264 10.0598 0.422411 10.4256C0.692182 10.7914 1.05795 10.9979 1.43986 11H16.1425L15.6536 9.3381H1.43986C1.38369 9.33602 1.3303 9.30463 1.29085 9.2505C1.2514 9.19637 1.22895 9.12369 1.2282 9.04767V1.94829C1.22971 1.87298 1.25249 1.80131 1.29186 1.74804C1.33123 1.69476 1.3842 1.66394 1.43986 1.6619H18.5572C18.6136 1.66287 18.6677 1.69311 18.7082 1.74639C18.7487 1.79967 18.7725 1.87194 18.7748 1.94829V9.04767C18.7732 9.12474 18.7497 9.19801 18.7092 9.25215C18.6686 9.30628 18.6141 9.33708 18.5572 9.3381H17.9073L17.6479 9.53979C17.6158 9.56428 17.5883 9.59852 17.5676 9.63982C17.547 9.68111 17.5336 9.72833 17.5287 9.77778C17.5245 9.82689 17.5284 9.87667 17.5403 9.92344C17.5522 9.97021 17.5716 10.0128 17.5973 10.048L18.2978 11H18.5572C18.8096 11.0004 19.0576 10.9099 19.2756 10.7378C19.4952 10.5667 19.6778 10.3205 19.8049 10.0239C19.932 9.72723 19.9993 9.39058 20 9.04767V1.94829C19.9984 1.43153 19.8458 0.936602 19.5755 0.571571C19.3052 0.20654 18.9391 0.00106111 18.5572 0ZM16.5572 10.7378H16.688C16.6514 10.7439 16.8727 10.6016 16.8421 10.6296C16.8115 10.6577 16.8757 10.5528 16.858 10.5966L16.688 11H16.9315L16.8421 10.6296C16.6394 10.8354 16.6191 10.5487 16.5572 10.5465V10.7378Z" fill="#7D7D7D"/>
<path d="M18.5059 9.54754L17.1009 8.14253L17.8945 7.68305C18.015 7.61102 18.1132 7.50699 18.1782 7.38252C18.2431 7.25805 18.2723 7.11801 18.2625 6.97795C18.2526 6.8379 18.2042 6.70331 18.1225 6.58914C18.0407 6.47497 17.929 6.38568 17.7996 6.3312L17.173 6.08438L12.0276 4.0528C11.8914 3.99917 11.7426 3.98605 11.5991 4.01502C11.4556 4.04399 11.3235 4.11381 11.2188 4.21609C11.1159 4.32042 11.0454 4.45229 11.0157 4.59581C10.9861 4.73932 10.9986 4.88835 11.0517 5.02492L12.0542 7.54255L12.677 9.10705L13.3529 10.8007C13.4064 10.9301 13.4946 11.0423 13.6079 11.1247C13.7212 11.2071 13.855 11.2566 13.9947 11.2677C14.1355 11.2759 14.2758 11.2447 14.3998 11.1777C14.5239 11.1106 14.6269 11.0103 14.6972 10.888L15.1566 10.0944L16.5616 11.4994C16.6301 11.5699 16.7122 11.6259 16.8029 11.6637C16.8937 11.7016 16.9912 11.7206 17.0895 11.7196C17.1884 11.7207 17.2864 11.7017 17.3778 11.6639C17.4692 11.626 17.5519 11.57 17.6211 11.4994L18.5059 10.6146C18.5766 10.5454 18.6325 10.4627 18.6704 10.3713C18.7082 10.2799 18.7272 10.1819 18.7261 10.083C18.7281 9.98338 18.7096 9.88444 18.6717 9.79232C18.6338 9.70021 18.5774 9.61688 18.5059 9.54754ZM17.0895 10.531L15.1908 8.65137C15.1347 8.59413 15.0583 8.56138 14.9782 8.56024H14.9364C14.8897 8.56593 14.845 8.58268 14.806 8.60909C14.767 8.63551 14.7349 8.67083 14.7123 8.71213L14.4959 9.09186L14.082 9.80956L13.7934 9.09186L13.1706 7.52736L12.2745 5.27934L16.8237 7.09067L16.0642 7.53116L15.7338 7.72102C15.6929 7.74409 15.6579 7.77632 15.6316 7.81519C15.6052 7.85407 15.5882 7.89852 15.5819 7.94507C15.5766 7.99131 15.5816 8.03817 15.5967 8.0822C15.6118 8.12623 15.6366 8.16631 15.6693 8.19949L17.5528 10.0754L17.0895 10.531Z" fill="#7D7D7D"/>
</svg>
