<svg width="47" height="57" viewBox="0 0 47 57" fill="none" xmlns="http://www.w3.org/2000/svg">
<g clip-path="url(#clip0)">
<path d="M36.1 24.71L46.69 13.53L32.27 15.26L26.52 0L20.35 17.12L0 19.87L16.18 28.73L6.35 56.17L26.8 34.55L42.65 43.21L36.1 24.71Z" fill="#FFB71B"/>
<path d="M26.032 32.4199L20.327 24.7582L25.839 17.4824H20.2995L17.5435 21.2581L14.8977 17.4824H8.99989L14.5119 24.9512L8.83453 32.4199H14.5119L17.3781 28.5064L20.0514 32.4199H26.032ZM34.7627 28.093L38.4006 24.7307C41.1566 22.1952 41.6802 20.4864 41.6802 18.6124C41.6802 15.0296 38.6211 12.7421 34.1839 12.7421C30.3806 12.7421 27.6522 14.3406 26.1915 16.7658L30.2428 19.0258C31.0145 17.7856 32.2823 17.1517 33.6878 17.1517C35.3414 17.1517 36.1682 17.8958 36.1682 19.136C36.1682 19.9352 35.9478 20.8172 34.4044 22.2503L27.1837 29.0025V32.4199H42.2039V28.093H34.7627Z" fill="#523178"/>
</g>
<defs>
<clipPath id="clip0">
<rect width="46.69" height="56.17" fill="white"/>
</clipPath>
</defs>
</svg>
