<?xml version="1.0" encoding="UTF-8"?>
<svg width="40px" height="40px" viewBox="0 0 40 40" version="1.1" xmlns="http://www.w3.org/2000/svg" xmlns:xlink="http://www.w3.org/1999/xlink">
    <!-- Generator: Sketch 52.4 (67378) - http://www.bohemiancoding.com/sketch -->
    <title>play-button (3) copy 5</title>
    <desc>Created with Sketch.</desc>
    <g id="Page-1" stroke="none" stroke-width="1" fill="none" fill-rule="evenodd">
        <g id="corta-clara_ripley-inset-product-V2" transform="translate(-1012.000000, -1309.000000)" fill-rule="nonzero">
            <g id="play-button-(3)-copy-5" transform="translate(1012.000000, 1309.000000)">
                <path d="M20,0 C8.972,0 0,8.972 0,20 C0,31.028 8.972,40 20,40 C31.028,40 40,31.028 40,20 C40,8.972 31.028,0 20,0 Z" id="Shape" fill="#4F2D7F" opacity="0.6"></path>
                <path d="M30.3753333,20.5506667 L15.7086667,30.5506667 C15.596,30.6273333 15.4646667,30.6666667 15.3333333,30.6666667 C15.2266667,30.6666667 15.1193333,30.6413333 15.022,30.5893333 C14.8033333,30.474 14.6666667,30.2473333 14.6666667,30 L14.6666667,10 C14.6666667,9.75266667 14.8033333,9.526 15.022,9.41066667 C15.2406667,9.29466667 15.5046667,9.31066667 15.7093333,9.44933333 L30.376,19.4493333 C30.5573333,19.5733333 30.6666667,19.7793333 30.6666667,20 C30.6666667,20.2206667 30.5573333,20.4266667 30.3753333,20.5506667 Z" id="Path" fill="#FFFFFF" opacity="0.315625"></path>
            </g>
        </g>
    </g>
</svg>