<svg width="34" height="25" viewBox="0 0 34 25" fill="none" xmlns="http://www.w3.org/2000/svg">
<path fill-rule="evenodd" clip-rule="evenodd" d="M17.2441 19.22C17.2441 19.132 17.1341 19.104 17.1341 19.104C16.0151 18.894 14.9701 18.102 14.1821 17.275C12.8901 15.915 11.8121 14.183 11.3921 13.373C11.2701 13.083 11.4461 13.051 11.4461 13.051V13.049C13.6361 12.216 14.0061 10.033 14.0091 9.43899C14.0231 6.67099 11.4061 5.84299 9.04607 5.83299C8.15607 5.82699 7.85807 5.89899 6.92907 5.89299C5.84907 5.88899 5.20207 5.81299 5.03507 5.81299C4.88607 5.81299 4.79107 5.93999 4.78907 6.08799C4.78607 6.75799 6.31307 5.63199 6.30507 7.85799L6.26007 16.762C6.25407 18.824 4.80807 18.242 4.80407 18.742C4.80307 18.908 4.99007 18.971 5.09907 18.974C5.63907 18.975 6.25207 18.9 7.12707 18.903C8.22407 18.906 8.50307 18.989 9.13307 18.991C9.59507 18.991 9.67307 18.898 9.67307 18.77C9.67707 18.136 7.72107 19.092 7.73407 16.418L7.77807 7.02999C7.78207 6.47399 8.18707 6.47599 8.78107 6.48099C10.9221 6.48899 12.6061 7.68999 12.6341 9.93499C12.6511 11.46 11.5041 12.904 9.61007 12.895C8.94007 12.895 9.08707 12.853 8.93407 12.853C8.84807 12.849 8.75107 12.885 8.75107 13.015C8.75107 13.188 8.88807 13.276 9.04707 13.322C9.25707 13.41 9.73507 13.494 10.2291 14.262C11.4871 16.34 12.8991 19.455 16.1501 19.472C17.3651 19.478 17.2451 19.335 17.2451 19.221" fill="#523178"/>
<mask id="mask0" mask-type="alpha" maskUnits="userSpaceOnUse" x="0" y="0" width="34" height="25">
<path d="M0 0.850098H34V24.2261H0V0.850098Z" fill="white"/>
</mask>
<g mask="url(#mask0)">
<path fill-rule="evenodd" clip-rule="evenodd" d="M31.038 0.850098H2.958C2.17338 0.851422 1.42131 1.1639 0.86678 1.719C0.312248 2.27409 0.000528498 3.02647 0 3.8111L0 21.2661C0.000529016 22.0506 0.312281 22.8029 0.866841 23.3578C1.4214 23.9128 2.17347 24.225 2.958 24.2261H26.798C27.376 24.2261 27.854 23.7561 27.862 23.1771C27.87 22.5931 27.097 22.1111 26.486 22.1001H2.958C2.84777 22.1027 2.73815 22.0829 2.63579 22.0419C2.53343 22.0009 2.44045 21.9396 2.36248 21.8616C2.28451 21.7836 2.22318 21.6907 2.18218 21.5883C2.14119 21.4859 2.1214 21.3763 2.124 21.2661V3.8111C2.124 3.3341 2.484 2.9751 2.958 2.9751H31.038C31.514 2.9751 31.873 3.3351 31.873 3.8111V21.2661C31.873 21.7431 31.514 22.1001 31.028 22.1001C30.45 22.1001 29.974 22.5701 29.965 23.1481C29.963 23.4321 30.068 23.7001 30.266 23.9051C30.463 24.1081 30.729 24.2241 31.005 24.2251H31.038C31.8228 24.2243 32.5753 23.9124 33.1305 23.3577C33.6857 22.8031 33.9984 22.0509 34 21.2661V3.8121C33.9989 3.02685 33.6865 2.27407 33.1313 1.71882C32.576 1.16356 31.8232 0.851156 31.038 0.850098V0.850098Z" fill="#523178"/>
</g>
</svg>
