<svg width="49" height="37" viewBox="0 0 49 37" fill="none" xmlns="http://www.w3.org/2000/svg">
<path d="M42.5075 3.94195H6.4925C4.59817 3.94195 3.0625 5.08903 3.0625 6.50402V30.8438C3.0625 32.2588 4.59817 33.4058 6.4925 33.4058H42.5075C44.4018 33.4058 45.9375 32.2588 45.9375 30.8438V6.50402C45.9375 5.08903 44.4018 3.94195 42.5075 3.94195ZM5.85824 31.6117C5.08927 31.1342 4.62159 30.2933 4.62159 29.3881V7.99939C4.62159 7.07864 5.12802 6.23253 5.93951 5.79749C6.30253 5.60288 6.70804 5.50104 7.11994 5.50104H41.8801C42.292 5.50104 42.6975 5.60288 43.0605 5.79749C43.872 6.23253 44.3784 7.07864 44.3784 7.99939V29.3881C44.3784 30.2933 43.9107 31.1342 43.1418 31.6117C42.7272 31.8692 42.2489 32.0056 41.7609 32.0056H7.2391C6.7511 32.0056 6.27281 31.8692 5.85824 31.6117Z" fill="#8C4799"/>
<path d="M44.2212 1.90032H4.7762C2.70145 1.90032 1.01953 3.21183 1.01953 4.82967V32.6585C1.01953 34.2763 2.70145 35.5878 4.7762 35.5878H44.2212C46.2959 35.5878 47.9779 34.2763 47.9779 32.6585V4.82967C47.9779 3.21183 46.2959 1.90032 44.2212 1.90032ZM3.74757 33.8494C2.67784 33.1032 2.04036 31.8813 2.04036 30.577V6.9112C2.04036 5.60692 2.67783 4.38497 3.74755 3.63874C4.41716 3.17162 5.21396 2.92116 6.03041 2.92116H42.967C43.7834 2.92116 44.5802 3.17162 45.2498 3.63874C46.3196 4.38497 46.957 5.60692 46.957 6.91121V30.577C46.957 31.8813 46.3195 33.1032 45.2498 33.8494C44.5802 34.3165 43.7834 34.567 42.967 34.567H6.03038C5.21395 34.567 4.41717 34.3165 3.74757 33.8494Z" fill="#8C4799"/>
<path d="M8.67989 11.0878C8.81567 11.0878 8.94588 11.0338 9.04188 10.9378L10.0659 9.91381C10.2599 9.71291 10.2572 9.39359 10.0597 9.1961C9.86217 8.9986 9.54283 8.99583 9.34192 9.18986L8.31789 10.2138C8.17151 10.3603 8.12772 10.5804 8.20695 10.7717C8.28618 10.963 8.47283 11.0878 8.67989 11.0878Z" fill="#8C4799"/>
<path d="M12.311 9.20533L8.34112 13.1752C8.19369 13.3176 8.13457 13.5285 8.18647 13.7267C8.23837 13.925 8.39322 14.0799 8.5915 14.1318C8.78979 14.1837 9.00065 14.1246 9.14304 13.9772L13.1129 10.0072C13.3279 9.78472 13.3248 9.43101 13.106 9.21224C12.8872 8.99348 12.5335 8.99041 12.311 9.20533Z" fill="#8C4799"/>
<path d="M28.1059 17.2516H26.3787C25.9018 17.2516 25.5151 17.7748 25.5151 18.42C25.5151 19.0653 25.9018 19.5884 26.3787 19.5884H28.1059C28.5828 19.5884 28.9695 19.0653 28.9695 18.42C28.9695 17.7748 28.5828 17.2516 28.1059 17.2516Z" fill="#8C4799"/>
<path d="M37.6568 13.086H27.26C25.3767 13.086 25.5175 13.6774 25.5175 14.4068C25.5175 15.1363 25.3767 15.7276 27.26 15.7276H37.6568C39.5401 15.7276 39.4332 15.1363 39.4332 14.4068C39.4332 13.6774 39.5401 13.086 37.6568 13.086Z" fill="#8C4799"/>
<path d="M28.1059 20.706H26.3787C25.9018 20.706 25.5151 21.2291 25.5151 21.8744C25.5151 22.5196 25.9018 23.0428 26.3787 23.0428H28.1059C28.5828 23.0428 28.9695 22.5196 28.9695 21.8744C28.9695 21.2291 28.5828 20.706 28.1059 20.706Z" fill="#8C4799"/>
<path d="M28.1059 24.262H26.3787C25.9018 24.262 25.5151 24.7851 25.5151 25.4303C25.5151 26.0756 25.9018 26.5987 26.3787 26.5987H28.1059C28.5828 26.5987 28.9695 26.0756 28.9695 25.4303C28.9695 24.7851 28.5828 24.262 28.1059 24.262Z" fill="#8C4799"/>
<path d="M33.2866 17.2516H31.5594C31.0825 17.2516 30.6958 17.7748 30.6958 18.42C30.6958 19.0653 31.0825 19.5884 31.5594 19.5884H33.2866C33.7635 19.5884 34.1502 19.0653 34.1502 18.42C34.1502 17.7748 33.7635 17.2516 33.2866 17.2516Z" fill="#8C4799"/>
<path d="M33.2866 20.706H31.5594C31.0825 20.706 30.6958 21.2291 30.6958 21.8744C30.6958 22.5196 31.0825 23.0428 31.5594 23.0428H33.2866C33.7635 23.0428 34.1502 22.5196 34.1502 21.8744C34.1502 21.2291 33.7635 20.706 33.2866 20.706Z" fill="#8C4799"/>
<path d="M33.2866 24.262H31.5594C31.0825 24.262 30.6958 24.7851 30.6958 25.4303C30.6958 26.0756 31.0825 26.5987 31.5594 26.5987H33.2866C33.7635 26.5987 34.1502 26.0756 34.1502 25.4303C34.1502 24.7851 33.7635 24.262 33.2866 24.262Z" fill="#8C4799"/>
<path d="M38.5459 17.2516H36.7679C36.277 17.2516 35.8789 17.7748 35.8789 18.42C35.8789 19.0653 36.277 19.5884 36.7679 19.5884H38.5459C39.0368 19.5884 39.4349 19.0653 39.4349 18.42C39.4349 17.7748 39.0368 17.2516 38.5459 17.2516Z" fill="#8C4799"/>
<path d="M38.5459 20.706H36.7679C36.277 20.706 35.8789 21.2291 35.8789 21.8744C35.8789 22.5196 36.277 23.0428 36.7679 23.0428H38.5459C39.0368 23.0428 39.4349 22.5196 39.4349 21.8744C39.4349 21.2291 39.0368 20.706 38.5459 20.706Z" fill="#8C4799"/>
<path d="M38.5459 24.262H36.7679C36.277 24.262 35.8789 24.7851 35.8789 25.4304C35.8789 26.0756 36.277 26.5988 36.7679 26.5988H38.5459C39.0368 26.5988 39.4349 26.0756 39.4349 25.4304C39.4349 24.7851 39.0368 24.262 38.5459 24.262Z" fill="#8C4799"/>
</svg>
