<svg width="65" height="65" viewBox="0 0 65 65" fill="none" xmlns="http://www.w3.org/2000/svg">
<g clip-path="url(#clip0)">
<path d="M12.0267 24.1791L13.4553 28.0524C13.509 28.1982 13.6478 28.2949 13.8031 28.2949C13.9583 28.2949 14.0971 28.1982 14.1508 28.0524L15.5794 24.1791C16.7357 21.0434 19.2075 18.5716 22.3429 17.4155L26.2162 15.9869C26.3618 15.9332 26.4586 15.7944 26.4586 15.6392C26.4586 15.484 26.3618 15.3451 26.2162 15.2914L22.3427 13.8629C19.2073 12.7065 16.7355 10.2349 15.5794 7.09949L14.1508 3.2262C14.0971 3.08059 13.9583 2.98389 13.8031 2.98389C13.6478 2.98389 13.509 3.08059 13.4553 3.2262L12.0267 7.09949C10.8704 10.2349 8.39882 12.7065 5.26316 13.8629L1.38965 15.2914C1.24405 15.3451 1.14734 15.484 1.14734 15.6392C1.14734 15.7944 1.24405 15.9332 1.38965 15.9869L5.26295 17.4155C8.39861 18.5716 10.8704 21.0432 12.0267 24.1791Z" fill="#8C4799"/>
<path d="M43.4303 40.539L39.5572 39.1107C36.4215 37.9543 33.9497 35.4827 32.7936 32.3473L31.3651 28.474C31.3114 28.3284 31.1725 28.2317 31.0173 28.2317C30.8621 28.2317 30.7233 28.3284 30.6696 28.474L29.241 32.3471C28.0847 35.4827 25.6129 37.9543 22.4774 39.1107L18.6041 40.539C18.4585 40.5927 18.3618 40.7315 18.3618 40.8868C18.3618 41.042 18.4585 41.1808 18.6041 41.2345L22.4776 42.6633C25.6131 43.8196 28.0847 46.2912 29.241 49.4266L30.6696 53.3002C30.7233 53.4458 30.8621 53.5425 31.0173 53.5425C31.1725 53.5425 31.3114 53.4458 31.3651 53.3002L32.7936 49.4266C33.95 46.2912 36.4215 43.8194 39.557 42.6633L43.4305 41.2345C43.5761 41.1808 43.6728 41.042 43.6728 40.8868C43.6728 40.7315 43.5759 40.5927 43.4303 40.539Z" fill="#8C4799"/>
<path d="M63.4768 23.9718L60.8443 23.001C58.7135 22.2151 57.0337 20.5353 56.2478 18.4045L55.277 15.7722C55.2404 15.6733 55.1461 15.6074 55.0406 15.6074C54.9352 15.6074 54.8409 15.6733 54.8042 15.7722L53.8336 18.4043C53.0478 20.5353 51.3679 22.2151 49.2369 23.001L46.6046 23.9718C46.5057 24.0083 46.4398 24.1026 46.4398 24.208C46.4398 24.3134 46.5057 24.408 46.6046 24.4444L49.2371 25.415C51.3679 26.2011 53.0478 27.8809 53.8336 30.0117L54.8042 32.6444C54.8409 32.7433 54.9352 32.8092 55.0406 32.8092C55.1461 32.8092 55.2404 32.7433 55.277 32.6444L56.2478 30.0117C57.0337 27.8807 58.7133 26.2011 60.8443 25.4152L63.4768 24.4444C63.5757 24.408 63.6416 24.3134 63.6416 24.208C63.6416 24.1026 63.5757 24.0083 63.4768 23.9718Z" fill="#8C4799"/>
<path d="M57.1 58.6248L55.2636 57.9475C53.7772 57.3993 52.6056 56.2277 52.0575 54.7415L51.3801 52.9056C51.3548 52.8366 51.2888 52.7908 51.2153 52.7908C51.1417 52.7908 51.0758 52.8366 51.0504 52.9056L50.3731 54.7415C49.8249 56.2279 48.6533 57.3995 47.1671 57.9475L45.3308 58.6248C45.2618 58.6502 45.2159 58.7161 45.2159 58.7897C45.2159 58.8632 45.2618 58.9291 45.3308 58.9545L47.1669 59.6319C48.6535 60.18 49.8251 61.3518 50.3733 62.8382L51.0507 64.6744C51.076 64.7433 51.1419 64.7892 51.2155 64.7892C51.289 64.7892 51.355 64.7433 51.3803 64.6744L52.0577 62.8382C52.6058 61.3518 53.7774 60.18 55.2641 59.6319L57.1002 58.9545C57.1692 58.9291 57.215 58.8632 57.215 58.7897C57.215 58.7161 57.1692 58.6502 57.1 58.6248Z" fill="#8C4799"/>
<path d="M43.5581 5.83428L41.7218 5.15712C40.2354 4.60897 39.0637 3.43735 38.5158 1.95095L37.8384 0.115044C37.8131 0.045843 37.7472 0 37.6736 0C37.6 0 37.5341 0.045843 37.5088 0.114826L36.8316 1.95051C36.2835 3.43691 35.1116 4.60875 33.6252 5.1569L31.7889 5.83406C31.7199 5.85939 31.6741 5.92531 31.6741 5.99888C31.6741 6.07245 31.7199 6.13837 31.7889 6.1637L33.625 6.84108C35.1116 7.38923 36.2835 8.56107 36.8316 10.0477L37.5088 11.8836C37.5341 11.9526 37.6 11.9984 37.6736 11.9984C37.7472 11.9984 37.8131 11.9526 37.8384 11.8836L38.5158 10.0475C39.064 8.56085 40.2356 7.38923 41.7222 6.8413L43.5583 6.16392C43.6273 6.13859 43.6731 6.07267 43.6731 5.9991C43.6731 5.92553 43.6273 5.8596 43.5581 5.83428Z" fill="#8C4799"/>
<path d="M21.0351 54.8501L18.7255 53.9987C16.856 53.3093 15.3821 51.8353 14.6922 49.9656L13.8406 47.656C13.8085 47.5693 13.7258 47.5115 13.6333 47.5115C13.5407 47.5115 13.458 47.5693 13.4259 47.656L12.5743 49.9654C11.8849 51.8351 10.4109 53.3091 8.54097 53.9987L6.23179 54.8501C6.14469 54.8819 6.08728 54.9649 6.08728 55.0574C6.08728 55.15 6.14491 55.233 6.23179 55.2648L8.54119 56.1166C10.4107 56.806 11.8847 58.28 12.5743 60.1497L13.4259 62.4593C13.458 62.5462 13.5407 62.6039 13.6333 62.6039C13.7258 62.6039 13.8088 62.5462 13.8406 62.4593L14.6924 60.1495C15.3818 58.28 16.8556 56.8062 18.7253 56.1166L21.0351 55.2648C21.122 55.233 21.1797 55.15 21.1797 55.0574C21.1797 54.9649 21.1222 54.8819 21.0351 54.8501Z" fill="#8C4799"/>
</g>
<defs>
<clipPath id="clip0">
<rect width="64.789" height="64.789" fill="white"/>
</clipPath>
</defs>
</svg>
