<?xml version="1.0" encoding="UTF-8"?>
<svg width="33px" height="40px" viewBox="0 0 33 40" version="1.1" xmlns="http://www.w3.org/2000/svg" xmlns:xlink="http://www.w3.org/1999/xlink">
    <!-- Generator: Sketch 52.3 (67297) - http://www.bohemiancoding.com/sketch -->
    <title>Fill 1 Copy</title>
    <desc>Created with Sketch.</desc>
    <g id="Page-1" stroke="none" stroke-width="1" fill="none" fill-rule="evenodd">
        <g id="bancoripley_ripleypuntosgo-3" transform="translate(-1049.000000, -1320.000000)" fill="#FAB604">
            <polygon id="Fill-1-Copy" points="1067.74795 1320 1063.38706 1332.19 1049 1334.15 1060.44075 1340.457 1053.48895 1360 1067.94549 1344.6 1079.14602 1350.77 1074.52008 1337.598 1082 1329.635 1071.80805 1330.868 1067.74894 1320"></polygon>
        </g>
    </g>
</svg>