<?xml version="1.0" encoding="UTF-8"?>
<svg width="31px" height="35px" viewBox="0 0 31 35" version="1.1" xmlns="http://www.w3.org/2000/svg" xmlns:xlink="http://www.w3.org/1999/xlink">
    <!-- Generator: Sketch 48.2 (47327) - http://www.bohemiancoding.com/sketch -->
    <title>Combined Shape</title>
    <desc>Created with Sketch.</desc>
    <defs></defs>
    <g id="bancoripley_tarjeta-mastercard" stroke="none" stroke-width="1" fill="none" fill-rule="evenodd" transform="translate(-515.000000, -1014.000000)">
        <g id="Group" transform="translate(515.000000, 1014.000000)" fill="#894590" fill-rule="nonzero">
            <path d="M30.1171612,19.8745224 C30.1171612,18.213886 28.7661282,16.8627862 27.1054251,16.8627862 L19.0789157,16.8627862 C19.7310533,15.703193 20.0780629,12.3818534 20.0780629,11.0151232 C20.0780629,8.70401912 18.1977985,6.82375472 15.8866945,6.82375472 L15.0585472,6.82375472 C14.5041334,6.82375472 14.0546574,7.27323069 14.0546574,7.82764451 C14.0546574,10.1491021 13.1506957,14.3392682 11.50923,15.9806671 L11.4455058,16.0443912 C10.3112954,17.1786017 9.35830482,17.5865968 8.0312519,18.2501567 L8.0312519,17.866676 C8.0312519,17.3122622 7.58177592,16.8627862 7.02736211,16.8627862 L1.00388979,16.8627862 C0.449475972,16.8627862 0,17.3122622 0,17.866676 L0,33.9961102 C0,34.550524 0.449475972,35 1.00388979,35 L7.02729531,35 C7.58170913,35 8.0311851,34.550524 8.0311851,33.9961102 L8.0311851,33.3811117 C10.0215307,34.0446047 12.5038351,35 16.3090509,35 L23.0897991,35 C24.7504355,35 26.1015353,33.648967 26.1015353,31.9882638 C26.1015353,31.5966339 26.0263888,31.2222376 25.8897893,30.8787014 C27.1673457,30.5300219 28.1093816,29.3592736 28.1093816,27.9726379 C28.1093816,27.581008 28.0342352,27.2066117 27.8976356,26.8630755 C29.1751921,26.514396 30.117228,25.3436477 30.117228,23.9570119 C30.117228,23.1970642 29.8396871,22.4710493 29.333033,21.8993351 C29.8198485,21.3641588 30.1171612,20.6533068 30.1171612,19.8745224 Z M6.02340552,19.8745224 L6.02340552,31.9883306 L6.02340552,32.9922204 L2.00777958,32.9922204 L2.00777958,18.8706326 L6.02340552,18.8706326 L6.02340552,19.8745224 Z M27.1054251,24.9609685 C26.3484832,24.9609685 21.7006919,24.9609685 21.0820195,24.9609685 C20.5276057,24.9609685 20.0781297,25.4104445 20.0781297,25.9648583 C20.0781297,26.5192721 20.5276057,26.9687481 21.0820195,26.9687481 L25.0976455,26.9687481 C25.6511909,26.9687481 26.1015353,27.4190924 26.1015353,27.9726379 C26.1015353,28.5261833 25.6511909,28.9765277 25.0976455,28.9765277 C24.6720828,28.9765277 21.5075822,28.9765277 21.0820195,28.9765277 C20.5276057,28.9765277 20.0781297,29.4260037 20.0781297,29.9804175 C20.0781297,30.5348313 20.5276057,30.9843073 21.0820195,30.9843073 L23.0897991,30.9843073 C23.6433446,30.9843073 24.0936889,31.4346516 24.0936889,31.988197 C24.0936889,32.5417425 23.6433446,32.9920868 23.0897991,32.9920868 L16.3089842,32.9920868 C12.8054228,32.9920868 10.6320539,32.1315431 8.0311851,31.2646536 L8.0311851,20.4949315 C10.2756927,19.3726777 11.3897973,18.9391661 12.9289302,17.400434 C14.7102017,15.6191625 15.7860316,11.3126363 16.0159464,8.83534172 C17.1601096,8.90240575 18.0702834,9.85446119 18.0702834,11.0150564 C18.0702834,12.5756311 17.4624989,16.0507369 16.3565435,17.1567591 C16.0694507,17.443852 15.9835499,17.8756936 16.1389194,18.2508246 C16.2942888,18.6259557 16.6603356,18.8705658 17.0663936,18.8705658 L27.1053583,18.8705658 C27.6589037,18.8705658 28.109248,19.3209101 28.109248,19.8744556 C28.109248,20.428001 27.6589705,20.8784121 27.1054251,20.8784121 L21.0820195,20.8784121 C20.5276057,20.8784121 20.0781297,21.3278881 20.0781297,21.8823019 C20.0781297,22.4367157 20.5276057,22.8861917 21.0820195,22.8861917 L27.1054251,22.8861917 C27.6402006,22.8861917 28.1093148,23.3866337 28.1093148,23.9570119 C28.1093148,24.5106242 27.6589705,24.9609685 27.1054251,24.9609685 Z M14.9525406,3.36301017 C15.2004905,3.85890995 14.9994988,4.46195187 14.503599,4.70983496 C14.0078328,4.95771805 13.4047241,4.75692673 13.1567742,4.26089336 L12.1528844,2.25311379 C11.9049345,1.75721401 12.1059263,1.15417209 12.601826,0.906222197 C13.0977926,0.658205511 13.7007677,0.859330812 13.9486508,1.35516379 L14.9525406,3.36301017 Z M21.5309611,0.906222197 C22.0268609,1.15423888 22.2278526,1.75721401 21.9798359,2.25318058 L20.9759461,4.26096016 C20.728063,4.75672634 20.1250879,4.95791844 19.6291213,4.70990176 C19.1332216,4.46195187 18.9322299,3.85890995 19.1801797,3.36301017 L20.1841363,1.35516379 C20.4320862,0.859264015 21.0353953,0.658339104 21.5309611,0.906222197 Z M25.0976455,6.82368792 C25.6520593,6.82368792 26.1015353,7.2731639 26.1015353,7.82757771 C26.1015353,8.38199153 25.6520593,8.8314675 25.0976455,8.8314675 L23.0898659,8.8314675 C22.5354521,8.8314675 22.0859761,8.38199153 22.0859761,7.82757771 C22.0859761,7.2731639 22.5354521,6.82368792 23.0898659,6.82368792 L25.0976455,6.82368792 Z M11.0429213,6.82368792 C11.5973351,6.82368792 12.046811,7.2731639 12.046811,7.82757771 C12.046811,8.38199153 11.5973351,8.8314675 11.0429213,8.8314675 L9.03514168,8.8314675 C8.48072787,8.8314675 8.0312519,8.38199153 8.0312519,7.82757771 C8.0312519,7.2731639 8.48072787,6.82368792 9.03514168,6.82368792 L11.0429213,6.82368792 Z" id="Combined-Shape"></path>
        </g>
    </g>
</svg>