<svg width="12" height="8" viewBox="0 0 12 8" fill="none" xmlns="http://www.w3.org/2000/svg">
<path d="M11.4003 6.33941L11.4003 6.33941L6.24063 1.17972C6.2406 1.17969 6.24058 1.17966 6.24055 1.17963C6.17405 1.11321 6.08781 1.08007 6.00003 1.08007C5.91212 1.08007 5.82595 1.11317 5.75952 1.17947L11.4003 6.33941ZM11.4003 6.33941C11.5333 6.47242 11.5332 6.68794 11.4003 6.82072L11.4003 6.82079C11.2675 6.95354 11.0521 6.95369 10.919 6.8208C10.919 6.82077 10.9189 6.82073 10.9189 6.8207L6.3536 2.25514L6.00004 1.90156L5.64648 2.25513L1.08113 6.82056C0.948103 6.95353 0.732637 6.95341 0.599884 6.82064L0.599712 6.82047C0.466838 6.68771 0.466735 6.47232 0.599784 6.33934L0.599874 6.33925L5.75937 1.17961L11.4003 6.33941Z" stroke="white"/>
</svg>
