<?xml version="1.0" encoding="UTF-8"?>
<svg width="20px" height="24px" viewBox="0 0 20 24" version="1.1" xmlns="http://www.w3.org/2000/svg" xmlns:xlink="http://www.w3.org/1999/xlink">
    <!-- Generator: Sketch 48.2 (47327) - http://www.bohemiancoding.com/sketch -->
    <title>Combined Shape</title>
    <desc>Created with Sketch.</desc>
    <defs></defs>
    <g id="layout/footer" stroke="none" stroke-width="1" fill="none" fill-rule="evenodd" transform="translate(-891.000000, -78.000000)">
        <g id="items" transform="translate(48.000000, 47.000000)" fill="#000000" fill-rule="nonzero">
            <g id="app" transform="translate(838.000000, 0.000000)">
                <path d="M6.01216194,39.8224748 C7.07917861,37.9666841 9.01460206,36.7948543 11.0628649,36.7647166 C11.0832452,36.7643232 11.1039403,36.7640871 11.1249501,36.7640871 C12.0058684,36.7640871 12.8379998,37.0942642 13.5721639,37.3856479 C14.1211739,37.6034578 14.5952723,37.7916021 14.9606233,37.7916021 C15.2857643,37.7916021 15.7571874,37.6057398 16.3029711,37.3905266 C17.0936336,37.0787626 18.0777913,36.6907494 19.1051489,36.6907494 C19.2367162,36.6907494 19.3677326,36.6971232 19.4946572,36.709792 C20.3693591,36.7474051 22.5419498,37.0600347 23.9594453,39.1344221 C23.9893469,39.178173 24.0003633,39.2323107 23.989819,39.2843238 C23.9792748,39.3364156 23.9481928,39.3819763 23.9035764,39.4106976 L23.8843764,39.4226583 C23.4725205,39.6774518 21.4189069,41.0832226 21.4452676,43.7378594 C21.4736741,47.0053225 24.1759961,48.2041425 24.4840618,48.3301229 C24.4866585,48.3312245 24.4959438,48.3350803 24.4984618,48.3362606 C24.5898192,48.3782016 24.634829,48.4822278 24.6029602,48.5775197 L24.596193,48.5988443 C24.4288224,49.135028 23.9327698,50.5381234 22.9438909,51.9832386 C21.9962447,53.3672914 20.9221461,54.9361836 19.1727424,54.9687606 C18.355011,54.9841049 17.8015945,54.7436327 17.2643091,54.5111868 C16.7191549,54.2752785 16.1554301,54.0312653 15.2720725,54.0312653 C14.3435477,54.0312653 13.7515738,54.2834621 13.1791933,54.5273966 C12.6693702,54.7444983 12.1420783,54.9691541 11.4123994,54.9982689 C11.3823404,54.9994492 11.3529895,55 11.3237174,55 C9.7706416,55 8.63673967,53.5460718 7.51676561,51.9263467 C5.27304044,48.686582 3.98317781,43.3433937 6.01216194,39.8224748 Z M19.4964671,31.0001512 C19.59829,30.9961381 19.6887032,31.072466 19.7000343,31.1752332 C19.843877,32.4866565 19.3683621,33.9507356 18.4279553,35.0915621 C17.5344469,36.1719558 16.2260924,36.842933 15.0132659,36.842933 C14.9281249,36.8428543 14.8426691,36.8395494 14.7589445,36.8330183 C14.6663281,36.8258576 14.5914166,36.7548019 14.5792199,36.6627363 C14.3847018,35.1912605 15.1230364,33.7314306 15.8788399,32.8558631 C16.7681778,31.8141842 18.2560995,31.0506692 19.4964671,31.0001512 Z" id="Combined-Shape"></path>
            </g>
        </g>
    </g>
</svg>