<?xml version="1.0" encoding="UTF-8"?>
<svg width="154px" height="35px" viewBox="0 0 154 35" version="1.1" xmlns="http://www.w3.org/2000/svg" xmlns:xlink="http://www.w3.org/1999/xlink">
    <!-- Generator: Sketch 48.2 (47327) - http://www.bohemiancoding.com/sketch -->
    <title>Group</title>
    <desc>Created with Sketch.</desc>
    <defs>
        <path d="M57.2455075,0.15328877 L0.381391342,0.15328877 C0.222169714,0.15328877 0.0930644246,0.267598396 0.0930644246,0.408843048 L0.0930644246,4.3693869 C0.0930644246,4.51063155 0.222169714,4.62494118 0.381391342,4.62494118 L57.2455075,4.62494118 L57.2455075,0.15328877 Z" id="path-1"></path>
        <path d="M0.200372396,0.15328877 L35.0124658,0.15328877 C35.0185766,0.15328877 35.0246428,0.153457342 35.030659,0.153789525 L35.030659,4.62441342 C35.0244809,4.62476347 35.0182499,4.62494118 35.0119721,4.62494118 L0.200372396,4.62494118 L0.200372396,0.15328877 Z" id="path-3"></path>
        <path d="M0.223749587,0.15328877 L24.3976906,0.15328877 C24.5566653,0.15328877 24.6855238,0.267379412 24.6855238,0.408186096 L24.6855238,4.3693869 C24.6855238,4.51063155 24.5564185,4.62494118 24.3971969,4.62494118 L0.223749587,4.62494118 L0.223749587,0.15328877 Z" id="path-5"></path>
    </defs>
    <g id="layout/menu" stroke="none" stroke-width="1" fill="none" fill-rule="evenodd" transform="translate(-26.000000, -17.000000)">
        <g id="Group" transform="translate(26.000000, 17.000000)">
            <g id="brand/Logo">
                <g id="Group-25" fill="#4F2D7F">
                    <path d="M6.07526336,18.0926787 C6.72501747,18.0926787 7.31261685,17.9843661 7.84480116,17.7652735 C8.37598701,17.5459342 8.83054031,17.23654 9.20920992,16.840545 C9.58762991,16.4410958 9.87843419,15.9617075 10.0858663,15.4004061 C10.2935479,14.8420655 10.3966399,14.2180958 10.3966399,13.5349119 C10.3966399,12.8514813 10.2935479,12.2297321 10.0858663,11.6676906 C9.87843419,11.10935 9.58762991,10.6302084 9.20920992,10.2307592 C8.83054031,9.83180347 8.37598701,9.5238896 7.84480116,9.30553721 C7.31261685,9.08767828 6.72501747,8.978132 6.07526336,8.978132 C5.76948203,8.978132 5.46220301,9.00157095 5.15742015,9.04992922 C4.84964189,9.09754731 4.58080394,9.13998416 4.3479109,9.17773322 C4.05860432,9.25397151 3.78053053,9.32946962 3.50944602,9.40496774 L3.50944602,17.6653495 C3.78053053,17.7413411 4.05860432,17.8079571 4.3479109,17.8649508 C4.59877639,17.941189 4.87460363,17.9974425 5.16915217,18.0351916 C5.46669612,18.074421 5.76948203,18.0926787 6.07526336,18.0926787 Z M3.50944602,6.27278294 C3.78053053,6.19654465 4.05860432,6.12005963 4.3479109,6.04382134 C4.59877639,5.98732112 4.87460363,5.93994976 5.16915217,5.90072034 C5.46669612,5.86395819 5.76948203,5.84422012 6.07526336,5.84422012 C7.26294299,5.84422012 8.34403598,6.04382134 9.31679502,6.44302378 C10.2895541,6.8409926 11.126022,7.38650347 11.828695,8.07955642 C12.5291214,8.77408971 13.0752843,9.58951868 13.4619417,10.5302844 C13.8498471,11.4710501 14.0445487,12.4717702 14.0445487,13.5349119 C14.0445487,14.5992873 13.8498471,15.5997606 13.4619417,16.5410198 C13.0752843,17.4798117 12.5291214,18.2969677 11.828695,18.9900207 C11.126022,19.684554 10.2895541,20.2293247 9.31679502,20.6272935 C8.34403598,21.0264959 7.26294299,21.2263439 6.07526336,21.2263439 C5.3014494,21.2263439 4.55035061,21.1594812 3.82046931,21.0264959 C3.09108725,20.893264 2.43808811,20.7417743 1.86247037,20.5702998 C1.21346511,20.400059 0.592916229,20.1920691 7.48852224e-05,19.9441096 L7.48852224e-05,0.841853307 C7.48852224e-05,0.773263518 0.0514960713,0.7177502 0.11714545,0.7177502 L3.39112737,0.7177502 C3.45577828,0.7177502 3.50944602,0.773263518 3.50944602,0.841853307 L3.50944602,6.27278294 Z" id="Fill-1"></path>
                    <path d="M58.99343,19.4959321 C59.0216367,19.5521855 59.0089062,19.6207753 58.9624774,19.6577842 C58.5853055,19.9533618 58.1629528,20.216865 57.6941713,20.4458266 C57.2251402,20.674048 56.6957017,20.8736493 56.101113,21.0438901 C55.5062748,21.2165982 54.8218238,21.300485 54.0477602,21.300485 C52.8585829,21.300485 51.7792372,21.1011305 50.8057294,20.7021748 C49.8357161,20.3029723 48.9977505,19.7579549 48.2943286,19.0646552 C47.5936525,18.3723425 47.0482385,17.5559266 46.6610819,16.6163945 C46.2739253,15.6746419 46.0799726,14.6744153 46.0799726,13.6097932 C46.0799726,12.5478851 46.2739253,11.5449445 46.6610819,10.604919 C47.0482385,9.66538688 47.5936525,8.84897101 48.2943286,8.15419099 C48.9977505,7.46286513 49.8357161,6.9168608 50.8057294,6.51765836 C51.7792372,6.11845592 52.8585829,5.91885469 54.0477602,5.91885469 C54.7848805,5.91885469 55.4516086,6.0000275 56.0459476,6.16187967 C56.6405363,6.32200475 57.1547481,6.49816701 57.5850885,6.6878992 C58.0358976,6.9168608 58.4452701,7.16062595 58.8181985,7.42166191 C58.8706182,7.45941097 58.885096,7.53120819 58.85639,7.58746169 L57.6192861,9.93259099 C57.5865862,9.99698644 57.5097041,10.0157376 57.4540394,9.97724837 C57.210912,9.81638311 56.9498122,9.66982795 56.668743,9.53758289 C56.3609648,9.4050911 56.0147454,9.2915972 55.6263407,9.19562084 C55.2396834,9.09989121 54.8048498,9.05276657 54.3185951,9.05276657 C53.6690906,9.05276657 53.066015,9.1761295 52.5093682,9.42408899 C51.9504748,9.6713083 51.4632216,10.0031546 51.0493559,10.4191344 C50.6344918,10.8380749 50.310738,11.3216576 50.077845,11.8730899 C49.8442031,12.423782 49.7263837,13.001614 49.7263837,13.6097932 C49.7263837,14.2179725 49.8442031,14.7975315 50.077845,15.3479769 C50.310738,15.8979288 50.6344918,16.3832386 51.0493559,16.800452 C51.4632216,17.2191458 51.9504748,17.5514855 52.5093682,17.7969778 C53.066015,18.0434569 53.6690906,18.1673133 54.3185951,18.1673133 C54.8382986,18.1673133 55.3073297,18.1098262 55.7224434,17.9960855 C56.1373076,17.8830851 56.48802,17.7510868 56.7760785,17.5983635 C57.0741217,17.4503279 57.3432093,17.2872422 57.5850885,17.1098463 C57.6432494,17.0661758 57.7228773,17.0859139 57.7578238,17.1508028 L58.99343,19.4959321 Z" id="Fill-3"></path>
                    <path d="M70.6513367,13.6096945 C70.6513367,12.9260172 70.5477455,12.3059951 70.3398142,11.7439536 C70.1343791,11.1841326 69.8535595,10.704991 69.5030966,10.3052951 C69.153133,9.90633936 68.7392674,9.59916566 68.2605012,9.38155345 C67.7839816,9.16246089 67.274762,9.05266788 66.7353388,9.05266788 C66.1951668,9.05266788 65.6856976,9.16246089 65.209178,9.38155345 C64.7311607,9.59916566 64.3190423,9.90633936 63.9673314,10.3052951 C63.6148716,10.704991 63.3357993,11.1841326 63.1296154,11.7439536 C62.9221833,12.3059951 62.8190913,12.9260172 62.8190913,13.6096945 C62.8190913,14.2943588 62.9221833,14.9168481 63.1296154,15.4751887 C63.3357993,16.0364901 63.6148716,16.5163719 63.9673314,16.915821 C64.3190423,17.3150235 64.7311607,17.6221972 65.209178,17.8398094 C65.6856976,18.0574216 66.1951668,18.1674613 66.7353388,18.1674613 C67.274762,18.1674613 67.7839816,18.0574216 68.2605012,17.8398094 C68.7392674,17.6221972 69.153133,17.3150235 69.5030966,16.915821 C69.8535595,16.5163719 70.1343791,16.0364901 70.3398142,15.4751887 C70.5477455,14.9168481 70.6513367,14.2943588 70.6513367,13.6096945 M59.1729298,13.6096945 C59.1729298,12.5463061 59.364636,11.5465729 59.7517926,10.6048203 C60.1404469,9.66430129 60.6718824,8.84887232 61.3475967,8.15433902 C62.0228118,7.46276644 62.8190913,6.91676211 63.7371841,6.51780639 C64.656525,6.11860395 65.6547451,5.918756 66.7353388,5.918756 C67.8139356,5.918756 68.8196442,6.11860395 69.746224,6.51780639 C70.6740519,6.91676211 71.4760726,7.46276644 72.1505389,8.15433902 C72.8250051,8.84887232 73.3516978,9.66430129 73.7308667,10.6048203 C74.1095363,11.5465729 74.296999,12.5463061 74.296999,13.6096945 C74.296999,14.6743166 74.1095363,15.6745432 73.7308667,16.6165426 C73.3516978,17.5543476 72.8250051,18.3724905 72.1505389,19.0645566 C71.4760726,19.7578562 70.6740519,20.3041073 69.746224,20.7020761 C68.8196442,21.1010318 67.8139356,21.300633 66.7353388,21.300633 C65.6547451,21.300633 64.656525,21.1010318 63.7371841,20.7020761 C62.8190913,20.3041073 62.0228118,19.7578562 61.3475967,19.0645566 C60.6718824,18.3724905 60.1404469,17.5543476 59.7517926,16.6165426 C59.364636,15.6745432 59.1729298,14.6743166 59.1729298,13.6096945" id="Fill-5"></path>
                    <path d="M88.5672268,9.04983053 C88.260447,9.04983053 87.9668969,9.08363198 87.6885735,9.14975451 C87.4087524,9.21883775 87.1703678,9.27879213 86.9724212,9.33257837 C86.7225541,9.43793031 86.4869153,9.54599624 86.2707466,9.65430889 L86.2707466,20.6035091 C86.2707466,20.6725924 86.2173285,20.7281057 86.1529272,20.7281057 L82.8799438,20.7281057 C82.8130463,20.7281057 82.7596282,20.6725924 82.7596282,20.6035091 L82.7596282,7.19938658 C83.2643546,6.9534009 83.8132632,6.73406161 84.4081015,6.5440827 C84.9490225,6.37260822 85.5413646,6.22531289 86.1888721,6.10194996 C86.8383766,5.97883375 87.5398015,5.91764574 88.2971407,5.91764574 C88.9626208,5.91764574 89.5696903,5.97463941 90.1198471,6.08862676 C90.6690054,6.20212065 91.1500181,6.33510589 91.5656311,6.4868423 C92.0129455,6.64548703 92.4225676,6.81868858 92.7952464,7.00842077 C92.8481653,7.03630079 92.8753736,7.10143642 92.8561531,7.16065062 L91.9904799,9.92299335 C91.966267,10.0004653 91.8808979,10.0325396 91.8167462,9.99158314 C91.5766143,9.83836638 91.3140167,9.69748592 91.0242109,9.5627736 C90.7002075,9.42534729 90.3352669,9.30815251 89.9303874,9.2040342 C89.5260072,9.10139624 89.0712043,9.04983053 88.5672268,9.04983053" id="Fill-7"></path>
                    <path d="M94.7398909,6.48620081 L98.0128743,6.48620081 C98.0785237,6.48620081 98.1309433,6.54393466 98.1309433,6.61227772 L98.1309433,20.6036078 C98.1309433,20.672691 98.0785237,20.7282044 98.0128743,20.7282044 L94.7938082,20.7282044 C94.6977055,20.7282044 94.6213226,20.6472783 94.6213226,20.5463674 L94.6213226,6.61227772 C94.6213226,6.54393466 94.6722445,6.48620081 94.7398909,6.48620081 M94.2161935,2.35749027 C94.2161935,1.78755353 94.4223775,1.28867384 94.8367424,0.860111021 C95.2503585,0.433028557 95.7638215,0.220350866 96.3768818,0.220350866 C96.9869468,0.220350866 97.5011586,0.433028557 97.9145251,0.860111021 C98.330138,1.28867384 98.5375701,1.78755353 98.5375701,2.35749027 C98.5375701,2.9254532 98.330138,3.42457961 97.9145251,3.85215553 C97.5011586,4.27973144 96.9869468,4.49314931 96.3768818,4.49314931 C95.7638215,4.49314931 95.2503585,4.27973144 94.8367424,3.85215553 C94.4223775,3.42457961 94.2161935,2.9254532 94.2161935,2.35749027" id="Fill-9"></path>
                    <path d="M107.246846,8.97803331 C106.938818,8.97803331 106.633786,9.00171899 106.326257,9.04835018 C106.020975,9.09621499 105.749641,9.13840512 105.516498,9.17788125 C105.229938,9.25214574 104.949118,9.32863075 104.680779,9.40486905 L104.680779,17.6652508 C104.949118,17.7414891 105.229938,17.8061313 105.516498,17.8633717 C105.768113,17.9410904 106.044938,17.9975906 106.339986,18.0336126 C106.638029,18.0743223 106.938818,18.09258 107.246846,18.09258 C107.893855,18.09258 108.482702,17.9820468 109.014886,17.7651748 C109.545823,17.5473159 110.000626,17.2381684 110.379295,16.8389659 C110.757715,16.4397635 111.048519,15.9603751 111.256201,15.3988271 C111.462385,14.8407332 111.566975,14.2179971 111.566975,13.5350599 C111.566975,12.850149 111.462385,12.2298801 111.256201,11.6690723 C111.048519,11.1082644 110.757715,10.6286293 110.379295,10.2294269 C110.000626,9.83170478 109.545823,9.52379091 109.014886,9.30543852 C108.482702,9.08609923 107.893855,8.97803331 107.246846,8.97803331 M104.560464,26.0670066 L101.288229,26.0670066 C101.22233,26.0670066 101.168163,26.0097662 101.168163,25.9421633 L101.168163,7.21221633 C101.168163,7.15991044 101.199365,7.11377271 101.244546,7.09428137 C101.81642,6.86038525 102.411507,6.65239535 103.032556,6.47080512 C103.644118,6.30007082 104.306603,6.15203531 105.018512,6.02867238 C105.728673,5.90481599 106.471285,5.84436816 107.246846,5.84436816 C108.434526,5.84436816 109.513622,6.04372265 110.486631,6.44169147 C111.457892,6.84114063 112.296856,7.38665151 113.000278,8.07945772 C113.700704,8.77275739 114.244121,9.59065362 114.632776,10.5287053 C115.019932,11.4697178 115.213136,12.4716715 115.213136,13.5350599 C115.213136,14.5977082 115.019932,15.5984283 114.632776,16.5394407 C114.244121,17.4811934 113.700704,18.2953887 113.000278,18.989922 C112.296856,19.6832217 111.457892,20.2294727 110.486631,20.6274415 C109.513622,21.0263972 108.434526,21.2264919 107.246846,21.2264919 C106.938818,21.2264919 106.633786,21.2010791 106.326257,21.1534611 C106.020975,21.1068299 105.749641,21.0634061 105.516498,21.0263972 C105.229938,20.9496655 104.949118,20.8736739 104.680779,20.798916 L104.680779,25.9421633 C104.680779,26.0097662 104.627361,26.0670066 104.560464,26.0670066" id="Fill-11"></path>
                    <path d="M117.878027,20.7281057 C117.811628,20.7281057 117.759458,20.6713587 117.759458,20.6035091 L117.759458,3.78050634 L117.749474,0.91725273 C117.749474,0.846442408 117.804639,0.789942186 117.871037,0.789942186 L121.151759,0.789942186 C121.218157,0.789942186 121.270327,0.846442408 121.270327,0.91725273 L121.270327,20.6035091 C121.270327,20.6713587 121.218157,20.7281057 121.151759,20.7281057" id="Fill-13"></path>
                    <path d="M121.151809,20.7281057 L117.878077,20.7281057" id="Fill-15"></path>
                    <path d="M134.041003,12.2529243 C133.897473,11.3230146 133.518804,10.544101 132.907241,9.91766407 C132.294181,9.28999349 131.547575,8.97665164 130.664678,8.97665164 C129.783279,8.97665164 129.029435,9.28999349 128.409136,9.91766407 C127.789086,10.544101 127.406422,11.3230146 127.260895,12.2529243 L134.041003,12.2529243 Z M136.01997,15.2439819 L127.260895,15.2439819 C127.548954,16.0226488 128.024974,16.6925095 128.692951,17.2520837 C129.359679,17.811658 130.331439,18.0926787 131.609231,18.0926787 C132.151649,18.0926787 132.636157,18.0351916 133.068494,17.921451 C133.500332,17.8079571 133.870265,17.6752186 134.175048,17.5220018 C134.488817,17.374213 134.767141,17.2111272 135.013263,17.0329912 C135.072423,16.9905543 135.151052,17.0097989 135.185,17.0746878 L136.420606,19.4183368 C136.449063,19.4750837 136.434834,19.5446604 136.38566,19.5816693 C135.992762,19.8784805 135.553935,20.1414903 135.06793,20.3704519 C134.598898,20.5994135 134.053984,20.7990147 133.432436,20.9692555 C132.811139,21.1382627 132.114956,21.2263439 131.339644,21.2263439 C130.151964,21.2263439 129.075864,21.0299501 128.111342,20.6428372 C127.149566,20.2525169 126.32483,19.7153947 125.641378,19.0317173 C124.957426,18.3485334 124.430733,17.5360652 124.0608,16.5965331 C123.690618,15.6567543 123.505901,14.635556 123.505901,13.5349119 C123.505901,12.3960253 123.681132,11.3548422 124.034091,10.416297 C124.385553,9.47553133 124.880294,8.66306307 125.519814,7.98012589 C126.158086,7.29669526 126.914926,6.76870192 127.789086,6.3983664 C128.66075,6.02852434 129.61978,5.84422012 130.664678,5.84422012 C131.709577,5.84422012 132.667109,6.02852434 133.541269,6.3983664 C134.414182,6.76870192 135.169524,7.29669526 135.809543,7.98012589 C136.449063,8.66306307 136.943305,9.47553133 137.296264,10.416297 C137.640986,11.3412723 137.817465,12.3607435 137.821709,13.478165 C137.821709,13.5124599 137.807481,13.5474949 137.782269,13.5738946 L136.101845,15.2104272 C136.07913,15.2316456 136.049675,15.2439819 136.01997,15.2439819 Z" id="Fill-17"></path>
                    <path d="M153.514581,19.5014587 C153.514581,20.3563638 153.343593,21.1772208 153.001867,21.9642762 C152.658893,22.7520719 152.154915,23.4505528 151.489685,24.0584853 C150.822707,24.6669113 150.016692,25.1507407 149.071641,25.5121941 C148.126839,25.8716737 147.042002,26.0515368 145.81638,26.0515368 C145.008618,26.0515368 144.278487,25.9614819 143.628983,25.7828524 C142.980976,25.6017556 142.432567,25.4073356 141.982257,25.1981121 C141.442834,24.9508928 140.964067,24.6669113 140.549952,24.343207 L141.842471,21.8917388 C141.873174,21.8300574 141.948558,21.808839 142.004972,21.846588 C142.303015,22.0281782 142.637503,22.1961986 143.008933,22.3499088 C143.368882,22.5018919 143.782997,22.6351239 144.250281,22.7491112 C144.719312,22.8628518 145.240513,22.9193521 145.81638,22.9193521 C146.735971,22.9193521 147.468847,22.7589802 148.018255,22.4357694 C148.569161,22.1128052 148.985273,21.7508584 149.275079,21.3519027 C149.615557,20.8959533 149.858185,20.3746215 150.002714,19.7854402 L150.002714,19.5014587 C149.680458,19.5584524 149.355456,19.605577 149.030454,19.6445597 C148.725671,19.6815686 148.400919,19.71537 148.059442,19.7430033 C147.716218,19.7716235 147.372745,19.7854402 147.032516,19.7854402 C145.880282,19.7854402 144.861843,19.6253151 143.980694,19.3018575 C143.098047,18.9786466 142.350692,18.5310859 141.739129,17.9633697 C141.126568,17.3936797 140.66203,16.7188845 140.346764,15.9399709 C140.034991,15.1615508 139.875236,14.3066457 139.875236,13.3772294 L139.875236,5.95546881 C139.875236,5.88465849 139.928904,5.82741809 139.995302,5.82741809 L143.267537,5.82741809 C143.333935,5.82741809 143.387603,5.88465849 143.387603,5.95546881 L143.387603,13.3772294 C143.387603,14.3066457 143.706614,15.0867929 144.346383,15.7124897 C144.984905,16.3384332 145.880282,16.651775 147.032516,16.651775 C147.411186,16.651775 147.77388,16.6280893 148.126839,16.5812114 C148.477052,16.5340868 148.797811,16.4817809 149.085869,16.4247872 C149.409373,16.3677936 149.716902,16.3014243 150.002714,16.2254327 L150.002714,5.95546881 C150.002714,5.88465849 150.05738,5.82741809 150.123778,5.82741809 L153.396013,5.82741809 C153.460913,5.82741809 153.514581,5.88465849 153.514581,5.95546881 L153.514581,19.5014587 Z" id="Fill-19"></path>
                    <path d="M30.658684,20.4688461 L30.658684,7.38546723 C30.658684,7.27419386 30.7258311,7.17599697 30.8236811,7.14145535 C31.4384888,6.9196488 32.0760117,6.72004758 32.7382466,6.54536567 C33.4049747,6.37537155 34.1096447,6.22955657 34.8567496,6.10471329 C35.6033552,5.98307744 36.3641891,5.91868199 37.1390015,5.91868199 C38.2897378,5.91868199 39.3121707,6.08028743 40.2018071,6.40275812 C41.0946886,6.72720263 41.8402958,7.17303626 42.4448692,7.74198609 C43.0464471,8.31142938 43.5062424,8.98499098 43.8215092,9.76365779 C44.1335309,10.5430648 44.2925372,11.3964895 44.2925372,12.3251657 L44.2925372,20.4688461 C44.2925372,20.6104668 44.1847025,20.7242074 44.0506579,20.7242074 L41.025295,20.7242074 C40.8927481,20.7242074 40.7824172,20.6104668 40.7824172,20.4688461 L40.7824172,12.3251657 C40.7824172,11.3964895 40.4634062,10.6160956 39.8248848,9.99163249 C39.1851154,9.36470208 38.2897378,9.05136023 37.1390015,9.05136023 C36.7618296,9.05136023 36.396889,9.08614858 36.0441796,9.15251784 C35.7012053,9.21790019 35.3856889,9.27760785 35.1023731,9.329667 C35.0911403,9.33090063 35.0814052,9.33386134 35.0701725,9.33805568 C34.8123177,9.42268265 34.5669438,9.50829653 34.3300568,9.59514403 C34.2324564,9.63042583 34.1703017,9.72615546 34.1703017,9.83545502 L34.1703017,20.4688461 C34.1703017,20.6104668 34.06047,20.7242074 33.9264255,20.7242074 L30.9010625,20.7242074 C30.7682661,20.7242074 30.658684,20.6104668 30.658684,20.4688461" id="Fill-21"></path>
                    <path d="M24.8904251,17.6430702 C24.6013681,17.7193085 24.2858517,17.7861712 23.9436263,17.8426714 C23.6563166,17.8991716 23.3273209,17.951971 22.9596345,17.9995891 C22.5889526,18.0479473 22.1975525,18.0713863 21.7831876,18.0713863 C20.6312033,18.0713863 19.8256879,17.8856017 19.365643,17.5150195 C18.9080943,17.1441905 18.6781967,16.7143941 18.6781967,16.2197087 C18.6781967,15.726257 18.9080943,15.2937465 19.365643,14.9224241 C19.8256879,14.5525821 20.6312033,14.3667975 21.7831876,14.3667975 C22.1975525,14.3667975 22.5844595,14.3813543 22.9451566,14.4094811 C23.3061034,14.4385947 23.6380946,14.4721494 23.9436263,14.509405 C24.2858517,14.5483877 24.6013681,14.5950189 24.8904251,14.652506 L24.8904251,17.6430702 Z M28.4012939,12.0880374 C28.4012939,10.1519796 27.843399,8.62474655 26.7253627,7.50337751 C25.6095729,6.38373556 23.9618483,5.82317441 21.7831876,5.82317441 C20.9744272,5.82317441 20.2570268,5.89793234 19.635729,6.05090238 C19.0149306,6.2028855 18.4707646,6.38373556 18.0024823,6.59098528 C17.5202215,6.81871325 17.0993666,7.06272513 16.7406663,7.32474799 C16.6882467,7.36076997 16.6757658,7.43108684 16.703723,7.48956087 L17.9450703,9.84406575 C17.9777702,9.90476031 18.0469142,9.92573201 18.1045759,9.89390437 C18.4018702,9.72761114 18.7276209,9.57538129 19.081828,9.43943534 C19.4248023,9.32544799 19.8256879,9.21688861 20.2852335,9.11227685 C20.7445296,9.00889871 21.2442636,8.9543723 21.7831876,8.9543723 C22.864031,8.9543723 23.6505754,9.18308717 24.1470645,9.63903656 C24.6420558,10.0947392 24.8904251,10.7216696 24.8904251,11.5183474 C24.6193406,11.461107 24.3220463,11.4159562 23.9982925,11.3757399 C23.7099844,11.3397179 23.3772444,11.3049296 22.9995732,11.2755692 C22.6209036,11.249663 22.2157746,11.2355996 21.7831876,11.2355996 C20.5952584,11.2355996 19.5768193,11.3616765 18.7318644,11.6182714 C17.8856614,11.8746196 17.18848,12.2212694 16.6380736,12.6589611 C16.0881664,13.0959126 15.6840359,13.6177378 15.4236849,14.2249301 C15.1615866,14.8321225 15.0317856,15.4975421 15.0317856,16.2197087 C15.0317856,16.921397 15.1615866,17.5821289 15.4236849,18.1984501 C15.6840359,18.8167451 16.0881664,19.3427646 16.6380736,19.7784825 C17.18848,20.2169144 17.8856614,20.5633175 18.7318644,20.8199124 C19.5768193,21.0762605 20.5952584,21.2052982 21.7831876,21.2052982 C22.6660844,21.2052982 23.4935661,21.1564464 24.2678793,21.0621972 C24.97854,20.9733758 25.6332865,20.8692575 26.2363622,20.7515693 L28.4012939,18.7269369 L28.4012939,12.0880374 Z" id="Fill-23"></path>
                </g>
                <g id="Group-35" transform="translate(83.416667, 30.282353)">
                    <g id="Group-28">
                        <mask id="mask-2" fill="white">
                            <use xlink:href="#path-1"></use>
                        </mask>
                        <g id="Clip-27"></g>
                        <path d="M56.1632941,16.2048128 L-9.93910775,16.2048128 C-10.5367443,16.2048128 -11.0210743,15.7751663 -11.0210743,15.2450061 L-11.0210743,-2.65934118 C-11.0210743,-3.18928235 -10.5364974,-3.61914786 -9.9388609,-3.61914786 L56.163541,-3.61914786 C56.7611775,-3.61914786 57.2455075,-3.18950134 57.2455075,-2.65956016 L57.2455075,15.2447872 C57.2455075,15.7749473 56.7609306,16.2048128 56.1632941,16.2048128" id="Fill-26" fill="#E22D36" mask="url(#mask-2)"></path>
                    </g>
                    <g id="Group-31" transform="translate(34.806589, 0.000000)">
                        <mask id="mask-4" fill="white">
                            <use xlink:href="#path-3"></use>
                        </mask>
                        <g id="Clip-30"></g>
                        <path d="M35.030659,16.2048128 L1.16681065,16.2048128 C0.633356483,16.2048128 0.200372396,15.3061027 0.200372396,14.1982628 L0.200372396,-1.61215989 C0.200372396,-2.7204377 0.633356483,-3.61914786 1.16681065,-3.61914786 L35.030659,-3.61914786" id="Fill-29" fill="#F2AD4B" mask="url(#mask-4)"></path>
                    </g>
                    <g id="Group-34" transform="translate(45.421364, 0.000000)">
                        <mask id="mask-6" fill="white">
                            <use xlink:href="#path-5"></use>
                        </mask>
                        <g id="Clip-33"></g>
                        <path d="M24.110203,16.2048128 L1.30546924,16.2048128 C0.708079564,16.2048128 0.223749587,15.7751663 0.223749587,15.2452251 L0.223749587,-2.65934118 C0.223749587,-3.18928235 0.708326419,-3.61914786 1.30596295,-3.61914786 L24.110203,-3.61914786 C24.7078395,-3.61914786 25.1924163,-3.18928235 25.1924163,-2.65934118 L25.1924163,15.2447872 C25.1924163,15.7749473 24.7078395,16.2048128 24.110203,16.2048128" id="Fill-32" fill="#894590" mask="url(#mask-6)"></path>
                    </g>
                </g>
            </g>
        </g>
    </g>
</svg>