<?xml version="1.0" encoding="UTF-8"?>
<svg width="24px" height="16px" viewBox="0 0 24 16" version="1.1" xmlns="http://www.w3.org/2000/svg" xmlns:xlink="http://www.w3.org/1999/xlink">
    <!-- Generator: Sketch 48.2 (47327) - http://www.bohemiancoding.com/sketch -->
    <title>brand/iso-master</title>
    <desc>Created with Sketch.</desc>
    <defs></defs>
    <g id="bancoripley_home5" stroke="none" stroke-width="1" fill="none" fill-rule="evenodd" transform="translate(-596.000000, -2324.000000)">
        <g id="beneficios" transform="translate(129.000000, 2066.000000)">
            <g id="brand/iso-master" transform="translate(467.000000, 258.000000)">
                <g id="master-iso">
                    <path d="M9.40898575,7.62283212 C9.40898575,5.23787369 10.5351902,3.11448224 12.2889214,1.74029767 C10.9959473,0.726902093 9.36229842,0.120276442 7.58451004,0.120276442 C3.39569812,0.120276442 -4.07749626e-05,3.47930465 -4.07749626e-05,7.62283212 C-4.07749626e-05,11.7663596 3.39569812,15.1253878 7.58451004,15.1253878 C9.36229842,15.1253878 10.9959473,14.5185605 12.2889214,13.5053666 C10.5351902,12.131182 9.40898575,10.0077905 9.40898575,7.62283212" id="Fill-1" fill="#E30E17"></path>
                    <path d="M8.8987013,7.56265356 C8.8987013,9.94742121 10.1145174,12.0706428 12.0077922,13.4447174 C13.901067,12.0706428 15.1168831,9.94742121 15.1168831,7.56265356 C15.1168831,5.17788592 13.901067,3.05466432 12.0077922,1.68058968 C10.1145174,3.05466432 8.8987013,5.17788592 8.8987013,7.56265356" id="Fill-4" fill="#EA600A"></path>
                    <path d="M16.324623,0.120256275 C14.5468346,0.120256275 12.9133896,0.726881926 11.6202116,1.7402775 C13.3737389,3.11446207 14.5001472,5.23785352 14.5001472,7.62281195 C14.5001472,10.0077704 13.3737389,12.1311618 11.6202116,13.5053464 C12.9133896,14.518742 14.5468346,15.1253676 16.324623,15.1253676 C20.5134349,15.1253676 23.9091738,11.7663394 23.9091738,7.62281195 C23.9091738,3.47928448 20.5134349,0.120256275 16.324623,0.120256275" id="Fill-6" fill="#F59F00"></path>
                </g>
            </g>
        </g>
    </g>
</svg>