<svg width="16" height="20" viewBox="0 0 16 20" fill="none" xmlns="http://www.w3.org/2000/svg">
<path d="M4.34766 4.17634V3.47827H11.6309V4.17634C10.4696 7.00924 8.44443 8.97375 8.44443 8.97375H7.53411C7.53411 8.97375 5.24185 6.74214 4.34766 4.17634Z" fill="#F8C21C"/>
<path d="M14.1357 3.20065V2.09935H15.1802V0H0.557617V2.09935H1.60149V3.20065C1.60149 4.88258 4.61955 9.47613 4.76213 9.8071C4.62213 10.1387 1.60149 14.7316 1.60149 16.4065V17.5065H0.557617V19.6084H15.1802V17.5065H14.1357V16.4065C14.1357 14.7232 11.115 10.16 10.9557 9.80387C11.115 9.4471 14.1357 4.88258 14.1357 3.20065ZM13.0912 16.4065V17.5065H2.64536V16.4065C2.64536 15.1981 5.846 10.4097 5.846 9.80387C5.846 9.19806 2.64536 4.41032 2.64536 3.20065V2.09935H13.0905V3.20065C13.0905 4.41032 9.86407 9.19742 9.86407 9.80323C9.86407 10.409 13.0912 15.1981 13.0912 16.4065Z" fill="#F8C21C"/>
</svg>
